/* XPM */
static char * 3d_icon_xpm[] = {
"64 64 6 1",
" 	c None",
".	c #8C8C8C",
"+	c #000000",
"@	c #FF7200",
"#	c #FF0000",
"$	c #494949",
"..........................++++..................................",
"........................++++++++................................",
".......................++++++++++...............................",
"......................++++++++++++..............................",
".....................++++++++++++++.............................",
"....................++++++++++++++++............................",
"....................++++++++++++++++............................",
"...................++++++++++++++++++...........................",
"...................++++++++++++++++++...........................",
"...................++++++++++++++++++...........................",
"...................++++++++++++++++++...........................",
"....................++++++++++++++++............................",
"....................++++++++++++++++............................",
".....................++++++++++++++...++........................",
"......................++++++++++++...++++.......................",
".......................++++++++++...+++++.......................",
"........................++++++++...+++++........................",
"..........................++++++..+++++.........................",
"............................++++++++++..........................",
"........................+++++++++++++...........................",
".......................+++++++++++++............................",
"......................++++++++++................................",
".....................+++++..++++................................",
"....................+++++...++++................................",
"...................+++++....++++................................",
"...................++++.....++++...++...........................",
"....................++......++++..++++..........................",
"............................++++.++++++.........................",
"............................++++++++++++........................",
"............................+++++++++++++.......................",
"............................+++++++..+++++......................",
"............................++++++....++++......................",
"............................+++++......++.......................",
"...........................+++++................................",
"..........................+++++.................................",
".........................+++++..................................",
"........................+++++..................+++++++++++++++++",
".......................+++++..................++++++++++++++++++",
"......................+++++..................+++@@@@@@@@@@@@@@@@",
".....................+++++..................+++@@@@@@@@@@@@@@@@@",
".....................++++...................++@@@@@@@@@@@@@@@@@@",
"......................++....................++@@@@@@@@@@@@@@@@@@",
"............................................++@@@@@@@@@@@@@@@@@@",
"............................................++@@@@@@@@@@@@@@@@@@",
"............................................+++@@@@@@@@@@@@@@@@@",
".............................................+++@@@@@@@@@@@@@@@@",
"..............................................++++++++++++++++++",
"...............................................+++++++++++++++++",
"+++++++++++++++++++++...........................................",
"++++++++++++++++++++++..........................................",
"@@@@@@@@@@@@@@@@@@@@+++.........................................",
"@@@@@@@@@@@@@@@@@@@@@+++........................................",
"@@@@@@@@@@@@@@@@@@@@@@++........................................",
"@@@@@@@@@@@@@@@@@@@@@@++....##........##........##........##....",
"@@@@@@@@@@@@@@@@@@@@@@++....##........##........##........##....",
"@@@@@@@@@@@@@@@@@@@@@@++....##........##........##........##....",
"@@@@@@@@@@@@@@@@@@@@@+++...####......####......####......####...",
"@@@@@@@@@@@@@@@@@@@@+++....###$......#$##......##$#......#$##...",
"++++++++++++++++++++++.....##$$......#$##......###$......$$##...",
"+++++++++++++++++++++.....####$$....$$####....##$#$$....$$$$##..",
"..........................#$##$$....$#$#$#....$$$$#$....$$#$$$..",
".........................$$$$$#$$..$$$$$$$$..$$$$$$$$..$$$$$$$$.",
".........................$$$$$$$$..$$$$$$$$..$$#$$$$$..$$$$$$$$.",
"........................$$$$$$$$$$$$$$$$$$$$$$$$$$$$$$$$$$$$$$$$"};
