# Blender MTL File: 'car.blend'
# Material Count: 7

newmtl Material.001
Ns 225.000000
Ka 1.000000 1.000000 1.000000
Kd 0.969936 1.000000 1.000000
Ks 0.500000 0.500000 0.500000
Ke 0.000000 0.000000 0.000000
Ni 1.000000
d 1.000000
illum 2

newmtl Material.002
Ns 506.250000
Ka 1.000000 1.000000 1.000000
Kd 0.774488 0.800000 0.043325
Ks 0.500000 0.500000 0.500000
Ke 0.000000 0.000000 0.000000
Ni 1.000000
d 1.000000
illum 2

newmtl Material.003
Ns 506.250000
Ka 1.000000 1.000000 1.000000
Kd 0.013410 0.013410 0.013410
Ks 0.500000 0.500000 0.500000
Ke 0.000000 0.000000 0.000000
Ni 1.000000
d 1.000000
illum 2

newmtl Material.004
Ns 506.250000
Ka 1.000000 1.000000 1.000000
Kd 0.062788 0.405682 0.800000
Ks 0.500000 0.500000 0.500000
Ke 0.000000 0.000000 0.000000
Ni 1.000000
d 1.000000
illum 2

newmtl Material.005
Ns 506.250000
Ka 1.000000 1.000000 1.000000
Kd 0.800000 0.117603 0.046149
Ks 0.500000 0.500000 0.500000
Ke 0.000000 0.000000 0.000000
Ni 1.000000
d 1.000000
illum 2

newmtl Material.006
Ns 506.250000
Ka 1.000000 1.000000 1.000000
Kd 0.800000 0.377555 0.033246
Ks 0.500000 0.500000 0.500000
Ke 0.000000 0.000000 0.000000
Ni 1.000000
d 1.000000
illum 2

newmtl None
Ns 500
Ka 0.8 0.8 0.8
Kd 0.8 0.8 0.8
Ks 0.8 0.8 0.8
d 1
illum 2
