# Blender v2.79 (sub 0) OBJ File: 'gun.blend'
# www.blender.org
mtllib gun.mtl
o collision_box_001_Cube
v -1.000000 -1.000000 1.000000
v -1.000000 1.000000 1.000000
v -1.000000 -1.000000 -1.000000
v -1.000000 1.000000 -1.000000
v 1.000000 -1.000000 1.000000
v 1.000000 1.000000 1.000000
v 1.000000 -1.000000 -1.000000
v 1.000000 1.000000 -1.000000
vn -1.0000 0.0000 0.0000
vn 0.0000 0.0000 -1.0000
vn 1.0000 0.0000 0.0000
vn 0.0000 0.0000 1.0000
vn 0.0000 -1.0000 0.0000
vn 0.0000 1.0000 0.0000
usemtl None
s off
f 2//1 3//1 1//1
f 4//2 7//2 3//2
f 8//3 5//3 7//3
f 6//4 1//4 5//4
f 7//5 1//5 3//5
f 4//6 6//6 8//6
f 2//1 4//1 3//1
f 4//2 8//2 7//2
f 8//3 6//3 5//3
f 6//4 2//4 1//4
f 7//5 5//5 1//5
f 4//6 2//6 6//6
o Pistol_Cube.001
v -0.126389 0.327933 1.126315
v -0.126389 0.582116 1.126315
v -0.126389 0.327933 0.109582
v -0.126389 0.582116 0.109582
v 0.127794 0.327933 1.126315
v 0.127794 0.582116 1.126315
v 0.127794 0.327933 0.109582
v 0.127794 0.582116 0.109582
v -0.126389 0.582116 -0.144601
v -0.126389 0.327933 -0.144601
v 0.127794 0.327933 -0.144601
v 0.127794 0.582116 -0.144601
v 0.127794 0.073750 0.109582
v -0.126389 0.073750 0.109582
v 0.127794 0.073750 -0.144601
v -0.126389 0.073750 -0.144601
v -0.126389 0.327933 0.770459
v -0.126389 0.582116 0.770459
v 0.127794 0.327933 0.770459
v 0.127794 0.582116 0.770459
v 0.043066 0.327933 0.109582
v -0.041661 0.327933 0.109582
v -0.041661 0.582116 0.109582
v 0.043066 0.582116 0.109582
v -0.041661 0.327933 1.126315
v 0.043066 0.327933 1.126315
v 0.043066 0.582116 1.126315
v -0.041661 0.582116 1.126315
v 0.043066 0.327933 -0.144601
v -0.041661 0.327933 -0.144601
v -0.041661 0.582116 -0.144601
v 0.043066 0.582116 -0.144601
v 0.043066 0.073750 0.109582
v -0.041661 0.073750 0.109582
v 0.043066 0.073750 -0.144601
v -0.041661 0.073750 -0.144601
v -0.041661 0.582116 0.770459
v 0.043066 0.582116 0.770459
v 0.043066 0.327933 0.770459
v -0.041661 0.327933 0.770459
v 0.043066 0.709208 1.126315
v -0.041661 0.709208 1.126315
v -0.041661 0.709208 1.024642
v 0.043066 0.709208 1.024642
v -0.126389 0.412661 1.126315
v -0.126389 0.497389 1.126315
v -0.126389 0.497389 0.109582
v -0.126389 0.412661 0.109582
v 0.127794 0.497389 0.109582
v 0.127794 0.412661 0.109582
v 0.127794 0.497389 1.126315
v 0.127794 0.412661 1.126315
v -0.126389 0.497389 -0.144601
v -0.126389 0.412661 -0.144601
v 0.127794 0.497389 -0.144601
v 0.127794 0.412661 -0.144601
v 0.127794 0.497389 0.770459
v 0.127794 0.412661 0.770459
v -0.126389 0.497389 0.770459
v -0.126389 0.412661 0.770459
v -0.041661 0.497389 -0.144601
v -0.041661 0.412661 -0.144601
v 0.043066 0.497389 -0.144601
v 0.043066 0.412661 -0.144601
v 0.043066 0.497389 1.126315
v 0.043066 0.412661 1.126315
v -0.041661 0.497389 1.126315
v -0.041661 0.412661 1.126315
v 0.043066 0.497389 0.109582
v 0.043066 0.412661 0.109582
v -0.041661 0.497389 0.109582
v -0.041661 0.412661 0.109582
v -0.253481 0.087941 -0.144601
v -0.197526 0.582116 -0.144601
v -0.253481 0.087941 -0.652967
v -0.197526 0.582116 -0.652967
v 0.254886 0.087941 -0.144601
v 0.198931 0.582116 -0.144601
v 0.254886 0.087941 -0.652967
v 0.198931 0.582116 -0.652967
v -0.126389 0.073750 -0.652967
v -0.144183 0.450642 -0.652967
v -0.126389 0.073750 -1.105011
v -0.144183 0.298133 -1.008824
v 0.127794 0.073750 -0.652967
v 0.145588 0.450642 -0.652967
v 0.127794 0.073750 -1.105011
v 0.145588 0.298133 -1.008824
v -0.126389 -0.688799 -1.105011
v -0.126389 -0.688799 -0.652967
v 0.127794 -0.688799 -1.105011
v 0.127794 -0.688799 -0.652967
v -0.126389 -0.053342 -0.652967
v -0.126389 -0.307525 -0.652967
v 0.127794 -0.307525 -0.652967
v 0.127794 -0.053342 -0.652967
v 0.127794 -0.053342 -1.105011
v 0.127794 -0.307525 -1.105011
v -0.126389 -0.307525 -1.105011
v -0.126389 -0.053342 -1.105011
v -0.059196 -0.120535 -0.652967
v -0.059196 -0.240332 -0.652967
v 0.060601 -0.240332 -0.652967
v 0.060601 -0.120535 -0.652967
v -0.059196 -0.120535 -0.395113
v -0.059196 -0.240332 -0.395113
v 0.060601 -0.240332 -0.395113
v 0.060601 -0.120535 -0.395113
v -0.059196 -0.120535 -0.277879
v -0.033778 -0.189495 -0.277879
v 0.086020 -0.189495 -0.277879
v 0.060601 -0.120535 -0.277879
v -0.059196 0.133649 -0.395113
v 0.060601 0.133649 -0.395113
v -0.059196 0.133649 -0.277879
v 0.060601 0.133649 -0.277879
v -0.253481 0.327933 -0.144601
v -0.253481 0.327933 -0.652967
v 0.254886 0.327933 -0.652967
v 0.254886 0.327933 -0.144601
v 0.000703 -0.039151 -0.652967
v 0.000703 0.658371 -0.652967
v 0.000703 -0.039151 -0.144601
v 0.000703 0.658371 -0.144601
v 0.000703 0.327933 -0.144601
v 0.000703 0.327933 -0.652967
v -0.056086 0.404276 -0.761156
v -0.056086 0.344499 -0.817830
v 0.057491 0.404276 -0.761156
v 0.057491 0.344499 -0.817830
v -0.056086 0.542925 -0.820578
v -0.056086 0.483149 -0.877251
v 0.057491 0.483149 -0.877251
v 0.057491 0.542925 -0.820578
v -0.056086 0.597238 -0.843854
v -0.056086 0.537462 -0.900528
v 0.057491 0.537462 -0.900528
v 0.057491 0.597238 -0.843854
v 0.057491 0.568567 -0.760748
v -0.056086 0.568567 -0.760748
v 0.057491 0.622879 -0.784024
v -0.056086 0.622879 -0.784024
v -0.126389 -0.828733 -1.161334
v -0.126389 -0.828733 -0.652967
v 0.127794 -0.828733 -1.161334
v 0.127794 -0.828733 -0.652967
v -0.126389 -0.688799 -0.561050
v 0.127794 -0.688799 -0.561050
v -0.126389 -0.828733 -0.561050
v 0.127794 -0.828733 -0.561050
v 0.043066 0.073750 -1.161334
v -0.041661 0.073750 -1.161334
v -0.047593 0.298133 -1.008824
v 0.048998 0.298133 -1.008824
v -0.041661 0.073750 -0.652967
v 0.043066 0.073750 -0.652967
v 0.048998 0.450642 -0.652967
v -0.047593 0.450642 -0.652967
v 0.043066 -0.688799 -1.161334
v -0.041661 -0.688799 -1.161334
v -0.041661 -0.688799 -0.652967
v 0.043066 -0.688799 -0.652967
v 0.043066 -0.053342 -1.161334
v -0.041661 -0.053342 -1.161334
v 0.043066 -0.307525 -1.161334
v -0.041661 -0.307525 -1.161334
v -0.041661 -0.053342 -0.652967
v 0.043066 -0.053342 -0.652967
v -0.041661 -0.307525 -0.652967
v 0.043066 -0.307525 -0.652967
v -0.019264 -0.120535 -0.652967
v 0.020669 -0.120535 -0.652967
v -0.019264 -0.240332 -0.652967
v 0.020669 -0.240332 -0.652967
v -0.019264 -0.120535 -0.395113
v 0.020669 -0.120535 -0.395113
v -0.019264 -0.240332 -0.395113
v 0.020669 -0.240332 -0.395113
v -0.019264 -0.120535 -0.277879
v 0.020669 -0.120535 -0.277879
v 0.006155 -0.189495 -0.277879
v 0.046087 -0.189495 -0.277879
v -0.019264 0.133649 -0.395113
v 0.020669 0.133649 -0.395113
v -0.019264 0.133649 -0.277879
v 0.020669 0.133649 -0.277879
v 0.043066 -0.828733 -1.161334
v -0.041661 -0.828733 -1.161334
v -0.041661 -0.828733 -0.652967
v 0.043066 -0.828733 -0.652967
v -0.041661 -0.688799 -0.561050
v 0.043066 -0.688799 -0.561050
v -0.041661 -0.828733 -0.561050
v 0.043066 -0.828733 -0.561050
vn -1.0000 0.0000 0.0000
vn 1.0000 0.0000 0.0000
vn 0.0000 0.0000 1.0000
vn 0.0000 -1.0000 0.0000
vn 0.0000 1.0000 0.0000
vn 0.0000 0.0000 -1.0000
vn 0.0000 0.8944 -0.4472
vn -0.9766 0.2150 0.0000
vn 0.9766 0.2150 0.0000
vn 0.4472 -0.8944 0.0000
vn -0.3590 0.9333 0.0000
vn -0.9969 -0.0791 0.0000
vn 0.4848 0.4829 -0.7293
vn 0.9969 -0.0791 0.0000
vn 0.0000 0.9191 -0.3939
vn 0.0000 -0.9175 0.3978
vn 0.9773 0.0000 -0.2119
vn -0.9383 -0.3458 0.0000
vn 0.3590 0.9333 0.0000
vn -0.4472 -0.8944 0.0000
vn 0.0000 -0.6880 0.7257
vn 0.0000 -0.3939 -0.9191
vn 0.0000 0.3939 0.9191
vn 0.0000 0.6880 -0.7257
vn 0.0000 -0.9191 0.3939
vn -0.5249 0.3178 -0.7896
vn -0.4848 0.4829 -0.7293
vn 0.0000 0.5621 -0.8270
vn -0.9987 -0.0472 0.0202
vn 0.0000 0.3940 -0.9191
vn 0.9987 -0.0472 0.0202
vn 0.9383 0.3458 0.0000
vn -0.9773 0.0000 0.2119
vn 0.5249 0.3178 -0.7896
vn 0.5536 0.0000 -0.8328
vn -0.5536 0.0000 -0.8328
usemtl Material
s off
f 26//7 55//7 67//7
f 15//8 64//8 58//8
f 28//8 59//8 65//8
f 36//9 54//9 75//9
f 27//10 34//10 47//10
f 26//11 36//11 45//11
f 40//12 63//12 71//12
f 11//9 42//9 30//9
f 16//11 40//11 32//11
f 12//7 61//7 55//7
f 22//10 44//10 42//10
f 19//12 43//12 37//12
f 18//7 22//7 11//7
f 15//8 23//8 19//8
f 12//11 45//11 31//11
f 15//10 47//10 29//10
f 16//8 65//8 57//8
f 10//7 67//7 54//7
f 30//10 25//10 11//10
f 29//10 48//10 30//10
f 32//11 28//11 16//11
f 31//11 46//11 32//11
f 38//12 24//12 18//12
f 37//12 44//12 38//12
f 41//10 23//10 21//10
f 42//10 43//10 41//10
f 31//11 17//11 12//11
f 32//11 39//11 31//11
f 29//9 21//9 15//9
f 30//9 41//9 29//9
f 17//12 69//12 61//12
f 39//12 71//12 69//12
f 46//11 14//11 28//11
f 35//8 52//8 49//8
f 48//10 9//10 25//10
f 47//10 33//10 48//10
f 14//9 73//9 59//9
f 35//9 75//9 73//9
f 51//11 49//11 52//11
f 45//13 52//13 46//13
f 36//7 51//7 45//7
f 35//9 50//9 36//9
f 74//9 33//9 34//9
f 76//8 79//8 75//8
f 60//9 34//9 13//9
f 59//9 74//9 60//9
f 70//12 37//12 38//12
f 69//12 72//12 70//12
f 62//12 38//12 18//12
f 61//12 70//12 62//12
f 53//7 25//7 9//7
f 54//7 68//7 53//7
f 58//8 27//8 15//8
f 57//8 66//8 58//8
f 56//7 18//7 11//7
f 55//7 62//7 56//7
f 72//12 19//12 37//12
f 71//12 64//12 72//12
f 76//9 9//9 33//9
f 75//9 53//9 76//9
f 66//8 13//8 27//8
f 65//8 60//8 66//8
f 57//8 20//8 16//8
f 58//8 63//8 57//8
f 68//7 11//7 25//7
f 67//7 56//7 68//7
f 77//9 80//9 78//9
f 73//7 78//7 74//7
f 74//11 80//11 76//11
f 75//10 77//10 73//10
f 82//14 126//14 125//14
f 134//12 88//12 127//12
f 88//15 128//15 127//15
f 133//9 82//9 125//9
f 87//16 131//16 129//16
f 84//17 132//17 130//17
f 89//18 92//18 91//18
f 162//19 95//19 159//19
f 96//20 93//20 95//20
f 166//9 89//9 163//9
f 102//9 169//9 177//9
f 92//21 166//21 161//21
f 97//7 152//7 98//7
f 89//9 175//9 163//9
f 104//9 111//9 103//9
f 109//11 183//11 179//11
f 175//9 109//9 179//9
f 102//9 109//9 101//9
f 178//9 111//9 182//9
f 115//22 190//22 186//22
f 110//7 113//7 109//7
f 111//10 186//10 182//10
f 112//8 115//8 111//8
f 187//9 118//9 189//9
f 116//23 119//23 115//23
f 116//8 124//8 120//8
f 113//24 118//24 117//24
f 121//11 193//11 191//11
f 120//9 194//9 188//9
f 117//7 121//7 113//7
f 113//12 191//12 183//12
f 133//9 81//9 131//9
f 127//8 85//8 87//8
f 134//12 87//12 129//12
f 125//7 83//7 81//7
f 83//12 134//12 129//12
f 85//9 133//9 131//9
f 130//25 86//25 88//25
f 129//26 81//26 83//26
f 86//9 133//9 128//9
f 84//12 134//12 126//12
f 137//27 136//27 138//27
f 142//8 145//8 146//8
f 136//28 141//28 138//28
f 137//8 141//8 142//8
f 135//7 140//7 136//7
f 137//29 139//29 135//29
f 144//30 146//30 145//30
f 139//7 144//7 140//7
f 146//8 147//8 142//8
f 140//28 145//28 141//28
f 147//29 150//29 148//29
f 143//21 149//21 146//21
f 142//31 148//31 139//31
f 143//7 148//7 150//7
f 153//10 198//10 195//10
f 100//8 158//8 154//8
f 167//12 153//12 195//12
f 99//8 154//8 153//8
f 155//9 201//9 199//9
f 98//11 199//11 169//11
f 152//7 155//7 98//7
f 154//10 202//10 198//10
f 197//10 157//10 152//10
f 198//10 201//10 197//10
f 170//11 156//11 100//11
f 169//11 200//11 170//11
f 200//9 158//9 156//9
f 199//9 202//9 200//9
f 168//32 151//32 97//32
f 167//12 196//12 168//12
f 196//10 152//10 151//10
f 195//10 197//10 196//10
f 184//12 122//12 116//12
f 183//12 192//12 184//12
f 187//9 123//9 117//9
f 188//9 193//9 187//9
f 192//11 124//11 122//11
f 191//11 194//11 192//11
f 120//9 190//9 119//9
f 188//9 189//9 190//9
f 181//10 114//10 110//10
f 182//10 185//10 181//10
f 185//22 118//22 114//22
f 186//22 189//22 185//22
f 177//9 110//9 102//9
f 178//9 181//9 177//9
f 176//9 112//9 104//9
f 175//9 180//9 176//9
f 180//11 116//11 112//11
f 179//11 184//11 180//11
f 164//9 104//9 93//9
f 163//9 176//9 164//9
f 171//12 174//12 172//12
f 159//12 172//12 160//12
f 173//12 168//12 174//12
f 162//21 94//21 96//21
f 161//21 165//21 162//21
f 178//9 100//9 103//9
f 177//9 170//9 178//9
f 93//9 165//9 164//9
f 165//9 163//9 164//9
f 91//33 161//33 160//33
f 161//34 159//34 160//34
f 26//7 12//7 55//7
f 15//8 19//8 64//8
f 28//8 14//8 59//8
f 36//9 10//9 54//9
f 27//10 13//10 34//10
f 26//11 10//11 36//11
f 40//12 20//12 63//12
f 11//9 22//9 42//9
f 16//11 20//11 40//11
f 12//7 17//7 61//7
f 22//10 24//10 44//10
f 19//12 23//12 43//12
f 18//7 24//7 22//7
f 15//8 21//8 23//8
f 12//11 26//11 45//11
f 15//10 27//10 47//10
f 16//8 28//8 65//8
f 10//7 26//7 67//7
f 30//10 48//10 25//10
f 29//10 47//10 48//10
f 32//11 46//11 28//11
f 31//11 45//11 46//11
f 38//12 44//12 24//12
f 37//12 43//12 44//12
f 41//10 43//10 23//10
f 42//10 44//10 43//10
f 31//11 39//11 17//11
f 32//11 40//11 39//11
f 29//9 41//9 21//9
f 30//9 42//9 41//9
f 17//12 39//12 69//12
f 39//12 40//12 71//12
f 46//11 35//11 14//11
f 35//8 46//8 52//8
f 48//10 33//10 9//10
f 47//10 34//10 33//10
f 14//9 35//9 73//9
f 35//9 36//9 75//9
f 51//11 50//11 49//11
f 45//13 51//13 52//13
f 36//7 50//7 51//7
f 35//9 49//9 50//9
f 74//9 76//9 33//9
f 76//8 80//8 79//8
f 60//9 74//9 34//9
f 59//9 73//9 74//9
f 70//12 72//12 37//12
f 69//12 71//12 72//12
f 62//12 70//12 38//12
f 61//12 69//12 70//12
f 53//7 68//7 25//7
f 54//7 67//7 68//7
f 58//8 66//8 27//8
f 57//8 65//8 66//8
f 56//7 62//7 18//7
f 55//7 61//7 62//7
f 72//12 64//12 19//12
f 71//12 63//12 64//12
f 76//9 53//9 9//9
f 75//9 54//9 53//9
f 66//8 60//8 13//8
f 65//8 59//8 60//8
f 57//8 63//8 20//8
f 58//8 64//8 63//8
f 68//7 56//7 11//7
f 67//7 55//7 56//7
f 77//9 79//9 80//9
f 73//7 77//7 78//7
f 74//11 78//11 80//11
f 75//10 79//10 77//10
f 82//14 84//14 126//14
f 134//12 130//12 88//12
f 88//15 86//15 128//15
f 133//9 132//9 82//9
f 87//16 85//16 131//16
f 84//17 82//17 132//17
f 89//35 90//35 92//35
f 162//36 96//36 95//36
f 96//37 94//37 93//37
f 166//9 90//9 89//9
f 102//9 98//9 169//9
f 92//21 90//21 166//21
f 97//7 151//7 152//7
f 89//9 101//9 175//9
f 104//9 112//9 111//9
f 109//11 113//11 183//11
f 175//9 101//9 109//9
f 102//9 110//9 109//9
f 178//9 103//9 111//9
f 115//22 119//22 190//22
f 110//7 114//7 113//7
f 111//10 115//10 186//10
f 112//8 116//8 115//8
f 187//9 117//9 118//9
f 116//38 120//38 119//38
f 116//8 122//8 124//8
f 113//39 114//39 118//39
f 121//11 123//11 193//11
f 120//9 124//9 194//9
f 117//7 123//7 121//7
f 113//12 121//12 191//12
f 133//9 125//9 81//9
f 127//8 128//8 85//8
f 134//12 127//12 87//12
f 125//7 126//7 83//7
f 83//12 126//12 134//12
f 85//9 128//9 133//9
f 130//25 132//25 86//25
f 129//26 131//26 81//26
f 86//9 132//9 133//9
f 84//12 130//12 134//12
f 137//27 135//27 136//27
f 142//8 141//8 145//8
f 136//28 140//28 141//28
f 137//8 138//8 141//8
f 135//7 139//7 140//7
f 137//29 142//29 139//29
f 144//30 143//30 146//30
f 139//7 143//7 144//7
f 146//8 149//8 147//8
f 140//28 144//28 145//28
f 147//29 149//29 150//29
f 143//21 150//21 149//21
f 142//31 147//31 148//31
f 143//7 139//7 148//7
f 153//10 154//10 198//10
f 100//8 156//8 158//8
f 167//40 99//40 153//40
f 99//8 100//8 154//8
f 155//9 157//9 201//9
f 98//11 155//11 199//11
f 152//7 157//7 155//7
f 154//10 158//10 202//10
f 197//10 201//10 157//10
f 198//10 202//10 201//10
f 170//11 200//11 156//11
f 169//11 199//11 200//11
f 200//9 202//9 158//9
f 199//9 201//9 202//9
f 168//12 196//12 151//12
f 167//12 195//12 196//12
f 196//10 197//10 152//10
f 195//10 198//10 197//10
f 184//12 192//12 122//12
f 183//12 191//12 192//12
f 187//9 193//9 123//9
f 188//9 194//9 193//9
f 192//11 194//11 124//11
f 191//11 193//11 194//11
f 120//9 188//9 190//9
f 188//9 187//9 189//9
f 181//10 185//10 114//10
f 182//10 186//10 185//10
f 185//22 189//22 118//22
f 186//22 190//22 189//22
f 177//9 181//9 110//9
f 178//9 182//9 181//9
f 176//9 180//9 112//9
f 175//9 179//9 180//9
f 180//11 184//11 116//11
f 179//11 183//11 184//11
f 164//9 176//9 104//9
f 163//9 175//9 176//9
f 171//12 173//12 174//12
f 159//12 171//12 172//12
f 173//12 167//12 168//12
f 162//21 165//21 94//21
f 161//21 166//21 165//21
f 178//9 170//9 100//9
f 177//9 169//9 170//9
f 93//9 94//9 165//9
f 165//9 166//9 163//9
f 91//36 92//36 161//36
f 161//34 162//34 159//34
usemtl Material.003
f 106//41 167//41 173//41
f 107//7 98//7 102//7
f 103//8 99//8 106//8
f 93//8 105//8 95//8
f 104//8 106//8 105//8
f 91//7 101//7 89//7
f 108//7 102//7 101//7
f 95//41 171//41 159//41
f 105//41 173//41 171//41
f 172//42 107//42 108//42
f 160//42 108//42 91//42
f 174//42 97//42 107//42
f 106//41 99//41 167//41
f 107//7 97//7 98//7
f 103//8 100//8 99//8
f 93//8 104//8 105//8
f 104//8 103//8 106//8
f 91//7 108//7 101//7
f 108//7 107//7 102//7
f 95//41 105//41 171//41
f 105//41 106//41 173//41
f 172//42 174//42 107//42
f 160//42 172//42 108//42
f 174//42 168//42 97//42
