# Blender v2.81 (sub 16) OBJ File: ''
# www.blender.org
mtllib launchpad.mtl
o Cube_Cube.002
v -0.772572 0.991269 0.772572
v -1.003085 0.949944 -1.003085
v -1.003085 0.949944 1.003085
v -0.772572 0.991269 -0.772572
v 1.003085 0.949944 -1.003085
v 0.772572 0.991269 -0.772572
v 1.003085 0.949944 1.003085
v 0.772572 0.991269 0.772572
v -0.616049 0.991269 -0.616049
v 0.616049 0.991269 0.616049
v 0.616049 0.991269 -0.616049
v -0.616049 0.991269 0.616049
v -0.772572 0.995339 0.772572
v -0.772572 0.995339 -0.772572
v -0.616049 0.998610 -0.616049
v 0.616049 0.998610 0.616049
v 0.772572 0.995339 0.772572
v -0.616049 0.998610 0.616049
v 0.616049 0.998610 -0.616049
v 0.772572 0.995339 -0.772572
v -0.151630 0.993155 0.146309
v -0.001247 0.993155 -0.154458
v -0.148741 0.992604 0.146309
v -0.140183 0.992073 0.146309
v -0.126286 0.991585 0.146309
v -0.107584 0.991156 0.146309
v -0.084795 0.990804 0.146309
v -0.058796 0.990543 0.146309
v -0.030585 0.990382 0.146309
v -0.001247 0.990328 0.146309
v 0.028092 0.990382 0.146309
v 0.056302 0.990543 0.146309
v 0.082302 0.990804 0.146309
v 0.105090 0.991156 0.146309
v 0.123793 0.991585 0.146309
v 0.137689 0.992073 0.146309
v 0.146247 0.992604 0.146309
v 0.149137 0.993155 0.146309
v 0.146247 0.993707 0.146309
v 0.137689 0.994237 0.146309
v 0.123792 0.994726 0.146309
v 0.105090 0.995155 0.146309
v 0.082302 0.995506 0.146309
v 0.056302 0.995767 0.146309
v 0.028092 0.995928 0.146309
v -0.001247 0.995983 0.146309
v -0.030585 0.995928 0.146309
v -0.058796 0.995767 0.146309
v -0.084795 0.995506 0.146309
v -0.107584 0.995155 0.146309
v -0.126286 0.994726 0.146309
v -0.140183 0.994237 0.146309
v -0.148741 0.993707 0.146309
v -0.154473 0.993155 -0.245492
v -0.004090 0.993155 -0.546258
v -0.151584 0.992604 -0.245492
v -0.143026 0.992073 -0.245492
v -0.129129 0.991585 -0.245492
v -0.110427 0.991156 -0.245492
v -0.087638 0.990804 -0.245492
v -0.061639 0.990543 -0.245492
v -0.033428 0.990382 -0.245492
v -0.004090 0.990328 -0.245492
v 0.025248 0.990382 -0.245492
v 0.053459 0.990543 -0.245492
v 0.079459 0.990804 -0.245492
v 0.102247 0.991156 -0.245492
v 0.120949 0.991585 -0.245492
v 0.134846 0.992073 -0.245492
v 0.143404 0.992604 -0.245492
v 0.146293 0.993155 -0.245492
v 0.143404 0.993707 -0.245492
v 0.134846 0.994237 -0.245492
v 0.120949 0.994726 -0.245492
v 0.102247 0.995155 -0.245492
v 0.079458 0.995506 -0.245492
v 0.053459 0.995767 -0.245492
v 0.025248 0.995928 -0.245492
v -0.004090 0.995983 -0.245492
v -0.033428 0.995928 -0.245492
v -0.061639 0.995767 -0.245492
v -0.087639 0.995506 -0.245492
v -0.110427 0.995155 -0.245492
v -0.129129 0.994726 -0.245492
v -0.143026 0.994237 -0.245492
v -0.151584 0.993707 -0.245492
v -0.151630 0.993155 0.518453
v -0.001247 0.993155 0.217686
v -0.148741 0.992604 0.518453
v -0.140183 0.992073 0.518453
v -0.126286 0.991585 0.518453
v -0.107584 0.991156 0.518453
v -0.084795 0.990804 0.518453
v -0.058796 0.990543 0.518453
v -0.030585 0.990382 0.518453
v -0.001247 0.990328 0.518453
v 0.028092 0.990382 0.518453
v 0.056302 0.990543 0.518453
v 0.082302 0.990804 0.518453
v 0.105090 0.991156 0.518453
v 0.123793 0.991585 0.518453
v 0.137689 0.992073 0.518453
v 0.146247 0.992604 0.518453
v 0.149137 0.993155 0.518453
v 0.146247 0.993707 0.518453
v 0.137689 0.994237 0.518453
v 0.123792 0.994726 0.518453
v 0.105090 0.995155 0.518453
v 0.082302 0.995506 0.518453
v 0.056302 0.995767 0.518453
v 0.028092 0.995928 0.518453
v -0.001247 0.995983 0.518453
v -0.030585 0.995928 0.518453
v -0.058796 0.995767 0.518453
v -0.084795 0.995506 0.518453
v -0.107584 0.995155 0.518453
v -0.126286 0.994726 0.518453
v -0.140183 0.994237 0.518453
v -0.148741 0.993707 0.518453
v -0.167109 0.963522 0.198951
v -0.158551 0.964052 0.198951
v -0.144654 0.964541 0.198951
v -0.125952 0.964970 0.198951
v -0.103163 0.965321 0.198951
v -0.077164 0.965582 0.198951
v -0.048953 0.965743 0.198951
v -0.019615 0.965798 0.198951
v 0.009724 0.965743 0.198951
v 0.037934 0.965582 0.198951
v 0.063934 0.965321 0.198951
v 0.086722 0.964970 0.198951
v 0.105424 0.964541 0.198951
v 0.119321 0.964052 0.198951
v 0.127879 0.963522 0.198951
v 0.130769 0.962970 0.198951
v 0.127879 0.962419 0.198951
v 0.119321 0.961888 0.198951
v 0.105425 0.961400 0.198951
v 0.086722 0.960971 0.198951
v 0.063934 0.960619 0.198951
v 0.037934 0.960358 0.198951
v 0.009724 0.960197 0.198951
v -0.019615 0.960143 0.198951
v -0.048953 0.960197 0.198951
v -0.077164 0.960358 0.198951
v -0.103163 0.960619 0.198951
v -0.125952 0.960971 0.198951
v -0.144654 0.961400 0.198951
v -0.158551 0.961888 0.198951
v -0.167109 0.962419 0.198951
v -0.019615 0.962970 -0.101816
v -0.169998 0.962970 0.198951
vn -0.1765 0.9843 0.0000
vn 0.0000 0.9843 -0.1765
vn 0.1765 0.9843 0.0000
vn 0.0000 0.9843 0.1765
vn 0.0000 -1.0000 -0.0000
vn 0.0000 1.0000 0.0000
vn 0.0000 0.0000 1.0000
vn -1.0000 0.0000 0.0000
vn 0.0000 0.0000 -1.0000
vn 0.0000 0.9998 0.0209
vn 0.0000 0.9998 -0.0209
vn 0.0209 0.9998 0.0000
vn -0.0209 0.9998 0.0000
vn 1.0000 0.0000 0.0000
vn -0.1868 -0.9779 -0.0934
vn -0.0619 -0.9976 -0.0322
vn -0.0351 -0.9992 -0.0198
vn -0.0342 -0.9992 -0.0193
vn -0.0243 -0.9996 -0.0152
vn -0.0229 -0.9996 -0.0147
vn -0.0154 -0.9998 -0.0121
vn -0.0127 -0.9999 -0.0114
vn -0.0105 -0.9999 -0.0108
vn -0.0059 -0.9999 -0.0099
vn -0.0039 -0.9999 -0.0096
vn -0.0018 -1.0000 -0.0094
vn 0.0018 -1.0000 -0.0094
vn 0.0127 -0.9999 -0.0114
vn 0.0039 -0.9999 -0.0096
vn 0.0059 -0.9999 -0.0099
vn 0.0105 -0.9999 -0.0108
vn 0.0154 -0.9998 -0.0121
vn 0.0229 -0.9996 -0.0148
vn 0.0342 -0.9992 -0.0193
vn 0.0243 -0.9996 -0.0152
vn 0.0351 -0.9992 -0.0198
vn 0.0619 -0.9976 -0.0322
vn 0.1865 -0.9780 -0.0932
vn 0.1868 0.9779 -0.0934
vn 0.0618 0.9976 -0.0321
vn 0.0352 0.9992 -0.0198
vn 0.0343 0.9992 -0.0193
vn 0.0243 0.9996 -0.0152
vn 0.0229 0.9996 -0.0148
vn 0.0154 0.9998 -0.0121
vn 0.0127 0.9999 -0.0114
vn 0.0104 0.9999 -0.0108
vn 0.0059 0.9999 -0.0099
vn 0.0020 1.0000 -0.0096
vn 0.0019 1.0000 -0.0094
vn -0.0019 1.0000 -0.0094
vn -0.0127 0.9999 -0.0114
vn -0.0020 1.0000 -0.0096
vn -0.0059 0.9999 -0.0099
vn -0.0104 0.9999 -0.0108
vn -0.0154 0.9998 -0.0121
vn -0.0229 0.9996 -0.0148
vn -0.0343 0.9992 -0.0193
vn -0.0243 0.9996 -0.0152
vn -0.0352 0.9992 -0.0198
vn -0.0618 0.9976 -0.0321
vn -0.1869 0.9779 -0.0934
vn -0.1865 -0.9780 -0.0933
vn -0.0229 -0.9996 -0.0148
vn 0.1865 -0.9780 -0.0933
vn 0.1869 0.9779 -0.0934
vn 0.0342 0.9992 -0.0193
vn -0.0342 0.9992 -0.0193
vn -0.1865 0.9780 -0.0931
vn -0.1868 -0.9779 -0.0935
usemtl Material.001
s 1
f 1//1 2//1 3//1
f 4//2 5//2 2//2
f 6//3 7//3 5//3
f 8//4 3//4 7//4
f 5//5 3//5 2//5
f 9//6 10//6 11//6
f 1//1 4//1 2//1
f 4//2 6//2 5//2
f 6//3 8//3 7//3
f 8//4 1//4 3//4
f 5//5 7//5 3//5
f 9//6 12//6 10//6
usemtl Material.002
f 8//7 13//7 1//7
f 1//8 14//8 4//8
f 11//7 15//7 9//7
f 12//9 16//9 10//9
f 17//10 18//10 13//10
f 14//11 19//11 20//11
f 20//12 16//12 17//12
f 13//13 15//13 14//13
f 4//9 20//9 6//9
f 10//8 19//8 11//8
f 9//14 18//14 12//14
f 6//14 17//14 8//14
f 21//15 22//15 23//15
f 23//16 22//16 24//16
f 24//17 22//18 25//19
f 25//19 22//18 26//20
f 26//21 22//22 27//23
f 27//23 22//22 28//24
f 28//24 22//22 29//25
f 29//25 22//22 30//26
f 30//27 22//28 31//29
f 31//29 22//28 32//30
f 32//30 22//28 33//31
f 33//31 22//28 34//32
f 34//33 22//34 35//35
f 35//35 22//34 36//36
f 36//37 22//37 37//37
f 37//38 22//38 38//38
f 38//39 22//39 39//39
f 39//40 22//40 40//40
f 40//41 22//42 41//43
f 41//43 22//42 42//44
f 42//45 22//46 43//47
f 43//47 22//46 44//48
f 44//48 22//46 45//49
f 45//49 22//46 46//50
f 46//51 22//52 47//53
f 47//53 22//52 48//54
f 48//54 22//52 49//55
f 49//55 22//52 50//56
f 50//57 22//58 51//59
f 51//59 22//58 52//60
f 52//61 22//61 53//61
f 53//62 22//62 21//62
f 51//7 52//7 25//7
f 54//63 55//63 56//63
f 56//16 55//16 57//16
f 57//17 55//18 58//19
f 58//19 55//18 59//64
f 59//21 55//22 60//23
f 60//23 55//22 61//24
f 61//24 55//22 62//25
f 62//25 55//22 63//26
f 63//27 55//28 64//29
f 64//29 55//28 65//30
f 65//30 55//28 66//31
f 66//31 55//28 67//32
f 67//33 55//34 68//35
f 68//35 55//34 69//36
f 69//37 55//37 70//37
f 70//65 55//65 71//65
f 71//66 55//66 72//66
f 72//40 55//40 73//40
f 73//41 55//67 74//43
f 74//43 55//67 75//44
f 75//45 55//46 76//47
f 76//47 55//46 77//48
f 77//48 55//46 78//49
f 78//49 55//46 79//50
f 79//51 55//52 80//53
f 80//53 55//52 81//54
f 81//54 55//52 82//55
f 82//55 55//52 83//56
f 83//57 55//68 84//59
f 84//59 55//68 85//60
f 85//61 55//61 86//61
f 86//69 55//69 54//69
f 84//7 85//7 58//7
f 8//7 17//7 13//7
f 1//8 13//8 14//8
f 11//7 19//7 15//7
f 12//9 18//9 16//9
f 17//10 16//10 18//10
f 14//11 15//11 19//11
f 20//12 19//12 16//12
f 13//13 18//13 15//13
f 4//9 14//9 20//9
f 10//8 16//8 19//8
f 9//14 15//14 18//14
f 6//14 20//14 17//14
f 53//7 21//7 23//7
f 23//7 24//7 53//7
f 24//7 25//7 52//7
f 53//7 24//7 52//7
f 25//7 26//7 50//7
f 26//7 27//7 49//7
f 27//7 28//7 49//7
f 28//7 29//7 48//7
f 49//7 28//7 48//7
f 29//7 30//7 46//7
f 30//7 31//7 45//7
f 31//7 32//7 45//7
f 32//7 33//7 44//7
f 45//7 32//7 44//7
f 33//7 34//7 42//7
f 34//7 35//7 41//7
f 35//7 36//7 41//7
f 36//7 37//7 40//7
f 41//7 36//7 40//7
f 37//7 38//7 39//7
f 39//7 40//7 37//7
f 41//7 42//7 34//7
f 42//7 43//7 33//7
f 43//7 44//7 33//7
f 45//7 46//7 30//7
f 46//7 47//7 29//7
f 47//7 48//7 29//7
f 49//7 50//7 26//7
f 50//7 51//7 25//7
f 86//7 54//7 56//7
f 56//7 57//7 86//7
f 57//7 58//7 85//7
f 86//7 57//7 85//7
f 58//7 59//7 83//7
f 59//7 60//7 82//7
f 60//7 61//7 82//7
f 61//7 62//7 81//7
f 82//7 61//7 81//7
f 62//7 63//7 79//7
f 63//7 64//7 78//7
f 64//7 65//7 78//7
f 65//7 66//7 77//7
f 78//7 65//7 77//7
f 66//7 67//7 75//7
f 67//7 68//7 74//7
f 68//7 69//7 74//7
f 69//7 70//7 73//7
f 74//7 69//7 73//7
f 70//7 71//7 72//7
f 72//7 73//7 70//7
f 74//7 75//7 67//7
f 75//7 76//7 66//7
f 76//7 77//7 66//7
f 78//7 79//7 63//7
f 79//7 80//7 62//7
f 80//7 81//7 62//7
f 82//7 83//7 59//7
f 83//7 84//7 58//7
f 109//47 88//46 110//48
f 103//38 88//38 104//38
f 101//35 88//34 102//36
f 96//27 88//28 97//29
f 95//25 88//22 96//26
f 93//23 88//22 94//24
f 87//15 88//15 89//15
f 89//16 88//16 90//16
f 90//17 88//18 91//19
f 91//19 88//18 92//20
f 92//21 88//22 93//23
f 94//24 88//22 95//25
f 97//29 88//28 98//30
f 98//30 88//28 99//31
f 99//31 88//28 100//32
f 100//33 88//34 101//35
f 102//37 88//37 103//37
f 105//40 88//40 106//40
f 106//41 88//42 107//43
f 107//43 88//42 108//44
f 108//45 88//46 109//47
f 110//48 88//46 111//49
f 113//53 88//52 114//54
f 114//54 88//52 115//55
f 115//55 88//52 116//56
f 116//57 88//58 117//59
f 116//7 117//7 91//7
f 111//49 88//46 112//50
f 113//7 114//7 95//7
f 117//59 88//58 118//60
f 118//61 88//61 119//61
f 104//39 88//39 105//39
f 119//7 90//7 118//7
f 124//7 123//7 147//7
f 127//7 126//7 144//7
f 128//7 127//7 143//7
f 130//7 129//7 140//7
f 131//7 130//7 140//7
f 132//7 131//7 139//7
f 134//7 133//7 136//7
f 136//7 135//7 134//7
f 132//7 137//7 133//7
f 137//7 136//7 133//7
f 138//7 137//7 132//7
f 139//7 138//7 132//7
f 140//7 139//7 131//7
f 128//7 141//7 129//7
f 141//7 140//7 129//7
f 142//7 141//7 128//7
f 143//7 142//7 128//7
f 144//7 143//7 127//7
f 124//7 145//7 125//7
f 145//7 144//7 125//7
f 146//7 145//7 124//7
f 147//7 146//7 124//7
f 148//7 147//7 123//7
f 120//7 149//7 121//7
f 149//7 148//7 121//7
f 150//7 149//7 120//7
f 120//7 152//7 150//7
f 122//7 121//7 148//7
f 120//62 151//62 152//62
f 121//61 151//61 120//61
f 122//59 151//58 121//60
f 126//7 125//7 144//7
f 128//49 151//46 127//50
f 112//51 88//52 113//53
f 119//62 88//62 87//62
f 117//7 118//7 91//7
f 119//7 87//7 89//7
f 89//7 90//7 119//7
f 91//7 92//7 116//7
f 93//7 94//7 115//7
f 94//7 95//7 114//7
f 115//7 94//7 114//7
f 95//7 96//7 112//7
f 98//7 99//7 110//7
f 99//7 100//7 108//7
f 100//7 101//7 107//7
f 101//7 102//7 107//7
f 102//7 103//7 106//7
f 105//7 106//7 103//7
f 108//7 109//7 99//7
f 109//7 110//7 99//7
f 111//7 112//7 96//7
f 112//7 113//7 95//7
f 115//7 116//7 92//7
f 107//7 108//7 100//7
f 103//7 104//7 105//7
f 107//7 102//7 106//7
f 111//7 98//7 110//7
f 97//7 98//7 111//7
f 96//7 97//7 111//7
f 92//7 93//7 115//7
f 90//7 91//7 118//7
f 123//7 122//7 148//7
f 123//57 151//58 122//59
f 124//55 151//52 123//56
f 125//54 151//52 124//55
f 126//53 151//52 125//54
f 129//48 151//46 128//49
f 131//45 151//46 130//47
f 132//43 151//42 131//44
f 133//41 151//42 132//43
f 134//40 151//40 133//40
f 137//37 151//37 136//37
f 139//33 151//34 138//35
f 140//31 151//28 139//32
f 141//30 151//28 140//31
f 142//29 151//28 141//30
f 145//24 151//22 144//25
f 147//21 151//22 146//23
f 148//19 151//18 147//20
f 149//17 151//18 148//19
f 150//16 151//16 149//16
f 152//70 151//70 150//70
f 146//23 151//22 145//24
f 144//25 151//22 143//26
f 143//27 151//28 142//29
f 138//35 151//34 137//36
f 136//38 151//38 135//38
f 135//39 151//39 134//39
f 130//47 151//46 129//48
f 127//51 151//52 126//5
o collision_box_1_Cube.001
v -1.000000 -1.000000 1.000000
v -1.000000 1.000000 1.000000
v -1.000000 -1.000000 -1.000000
v -1.000000 1.000000 -1.000000
v 1.000000 -1.000000 1.000000
v 1.000000 1.000000 1.000000
v 1.000000 -1.000000 -1.000000
v 1.000000 1.000000 -1.000000
vn -1.0000 0.0000 0.0000
vn 0.0000 0.0000 -1.0000
vn 1.0000 0.0000 0.0000
vn 0.0000 0.0000 1.0000
vn 0.0000 -1.0000 0.0000
vn 0.0000 1.0000 0.0000
usemtl Material.001
s off
f 1558//46 1559//46 1557//46
f 1560//47 1563//47 1559//47
f 1564//48 1561//48 1563//48
f 1562//49 1557//49 1561//49
f 1563//50 1557//50 1559//50
f 1560//51 1562//51 1564//51
f 1558//46 1560//46 1559//46
f 1560//47 1564//47 1563//47
f 1564//48 1562//48 1561//48
f 1562//49 1558//49 1557//49
f 1563//50 1561//50 1557//50
f 1560//51 1558//51 1562//51
