# Blender v2.79 (sub 0) OBJ File: ''
# www.blender.org
mtllib monitor.mtl
v -0.143060 -0.693748 -0.756428
v -0.143060 -0.751782 -0.756428
v 0.004511 -0.693748 -0.741893
v 0.004511 -0.751782 -0.741893
v 0.146412 -0.693748 -0.698848
v 0.146412 -0.751782 -0.698848
v 0.277188 -0.693748 -0.628947
v 0.277188 -0.751782 -0.628947
v 0.391815 -0.693748 -0.534875
v 0.391815 -0.751782 -0.534875
v 0.485886 -0.693748 -0.420249
v 0.485886 -0.751782 -0.420249
v 0.555788 -0.693748 -0.289472
v 0.555788 -0.751782 -0.289472
v 0.598833 -0.693748 -0.147572
v 0.598833 -0.751782 -0.147572
v 0.613367 -0.693748 -0.000000
v 0.613367 -0.751782 -0.000000
v 0.598833 -0.693748 0.147572
v 0.598833 -0.751782 0.147572
v 0.555788 -0.693748 0.289472
v 0.555788 -0.751782 0.289472
v 0.485886 -0.693748 0.420249
v 0.485886 -0.751782 0.420249
v 0.391815 -0.693748 0.534875
v 0.391815 -0.751782 0.534875
v 0.277188 -0.693748 0.628947
v 0.277188 -0.751782 0.628947
v 0.146412 -0.693748 0.698848
v 0.146412 -0.751782 0.698848
v 0.004511 -0.693748 0.741893
v 0.004511 -0.751782 0.741893
v -0.143061 -0.693748 0.756428
v -0.143061 -0.751782 0.756428
v -0.290632 -0.693748 0.741893
v -0.290632 -0.751782 0.741893
v -0.432533 -0.693748 0.698848
v -0.432533 -0.751782 0.698848
v -0.563309 -0.693748 0.628946
v -0.563309 -0.751782 0.628946
v -0.677936 -0.693748 0.534875
v -0.677936 -0.751782 0.534875
v -0.772007 -0.693748 0.420248
v -0.772007 -0.751782 0.420248
v -0.841909 -0.693748 0.289472
v -0.841909 -0.751782 0.289472
v -0.884954 -0.693748 0.147571
v -0.884954 -0.751782 0.147571
v -0.899488 -0.693748 -0.000001
v -0.899488 -0.751782 -0.000001
v -0.884953 -0.693748 -0.147572
v -0.884953 -0.751782 -0.147572
v -0.841908 -0.693748 -0.289473
v -0.841908 -0.751782 -0.289473
v -0.772006 -0.693748 -0.420249
v -0.772006 -0.751782 -0.420249
v -0.677935 -0.693748 -0.534876
v -0.677935 -0.751782 -0.534876
v -0.563308 -0.693748 -0.628947
v -0.563308 -0.751782 -0.628947
v -0.432532 -0.693748 -0.698848
v -0.432532 -0.751782 -0.698848
v -0.290631 -0.693748 -0.741893
v -0.290631 -0.751782 -0.741893
vn 0.0980 0.0000 -0.9952
vn 0.2903 0.0000 -0.9569
vn 0.4714 0.0000 -0.8819
vn 0.6344 0.0000 -0.7730
vn 0.7730 0.0000 -0.6344
vn 0.8819 0.0000 -0.4714
vn 0.9569 0.0000 -0.2903
vn 0.9952 0.0000 -0.0980
vn 0.9952 0.0000 0.0980
vn 0.9569 0.0000 0.2903
vn 0.8819 0.0000 0.4714
vn 0.7730 0.0000 0.6344
vn 0.6344 0.0000 0.7730
vn 0.4714 0.0000 0.8819
vn 0.2903 0.0000 0.9569
vn 0.0980 0.0000 0.9952
vn -0.0980 0.0000 0.9952
vn -0.2903 0.0000 0.9569
vn -0.4714 0.0000 0.8819
vn -0.6344 0.0000 0.7730
vn -0.7730 0.0000 0.6344
vn -0.8819 0.0000 0.4714
vn -0.9569 0.0000 0.2903
vn -0.9952 0.0000 0.0980
vn -0.9952 0.0000 -0.0980
vn -0.9569 0.0000 -0.2903
vn -0.8819 0.0000 -0.4714
vn -0.7730 0.0000 -0.6344
vn -0.6344 0.0000 -0.7730
vn -0.4714 0.0000 -0.8819
vn 0.0000 -1.0000 0.0000
vn -0.2903 0.0000 -0.9569
vn -0.0980 0.0000 -0.9952
vn 0.0000 1.0000 -0.0000
usemtl Material.002
s off
f 2//1 1//1 3//1
f 4//2 3//2 5//2
f 6//3 5//3 7//3
f 8//4 7//4 9//4
f 10//5 9//5 11//5
f 12//6 11//6 13//6
f 14//7 13//7 15//7
f 16//8 15//8 17//8
f 18//9 17//9 19//9
f 20//10 19//10 21//10
f 22//11 21//11 23//11
f 24//12 23//12 25//12
f 26//13 25//13 27//13
f 28//14 27//14 29//14
f 30//15 29//15 31//15
f 32//16 31//16 33//16
f 34//17 33//17 35//17
f 36//18 35//18 37//18
f 38//19 37//19 39//19
f 40//20 39//20 41//20
f 42//21 41//21 43//21
f 44//22 43//22 45//22
f 46//23 45//23 47//23
f 48//24 47//24 49//24
f 50//25 49//25 51//25
f 52//26 51//26 53//26
f 54//27 53//27 55//27
f 56//28 55//28 57//28
f 58//29 57//29 59//29
f 60//30 59//30 61//30
f 38//31 6//31 22//31
f 62//32 61//32 63//32
f 64//33 63//33 1//33
f 15//34 47//34 31//34
f 2//1 3//1 4//1
f 4//2 5//2 6//2
f 6//3 7//3 8//3
f 8//4 9//4 10//4
f 10//5 11//5 12//5
f 12//6 13//6 14//6
f 14//7 15//7 16//7
f 16//8 17//8 18//8
f 18//9 19//9 20//9
f 20//10 21//10 22//10
f 22//11 23//11 24//11
f 24//12 25//12 26//12
f 26//13 27//13 28//13
f 28//14 29//14 30//14
f 30//15 31//15 32//15
f 32//16 33//16 34//16
f 34//17 35//17 36//17
f 36//18 37//18 38//18
f 38//19 39//19 40//19
f 40//20 41//20 42//20
f 42//21 43//21 44//21
f 44//22 45//22 46//22
f 46//23 47//23 48//23
f 48//24 49//24 50//24
f 50//25 51//25 52//25
f 52//26 53//26 54//26
f 54//27 55//27 56//27
f 56//28 57//28 58//28
f 58//29 59//29 60//29
f 60//30 61//30 62//30
f 6//31 2//31 4//31
f 2//31 6//31 64//31
f 64//31 6//31 62//31
f 62//31 58//31 60//31
f 58//31 54//31 56//31
f 54//31 50//31 52//31
f 50//31 54//31 48//31
f 48//31 54//31 46//31
f 46//31 38//31 44//31
f 44//31 38//31 42//31
f 42//31 38//31 40//31
f 38//31 34//31 36//31
f 34//31 38//31 32//31
f 32//31 38//31 30//31
f 30//31 26//31 28//31
f 26//31 22//31 24//31
f 22//31 18//31 20//31
f 18//31 22//31 16//31
f 16//31 22//31 14//31
f 14//31 10//31 12//31
f 10//31 6//31 8//31
f 62//31 6//31 58//31
f 58//31 6//31 54//31
f 30//31 38//31 26//31
f 26//31 38//31 22//31
f 14//31 6//31 10//31
f 54//31 38//31 46//31
f 22//31 6//31 14//31
f 6//31 38//31 54//31
f 62//32 63//32 64//32
f 64//33 1//33 2//33
f 63//34 3//34 1//34
f 3//34 7//34 5//34
f 7//34 11//34 9//34
f 11//34 7//34 13//34
f 13//34 7//34 15//34
f 15//34 23//34 17//34
f 17//34 23//34 19//34
f 19//34 23//34 21//34
f 23//34 27//34 25//34
f 27//34 31//34 29//34
f 31//34 35//34 33//34
f 35//34 31//34 37//34
f 37//34 31//34 39//34
f 39//34 43//34 41//34
f 43//34 47//34 45//34
f 47//34 51//34 49//34
f 51//34 55//34 53//34
f 55//34 63//34 57//34
f 57//34 63//34 59//34
f 59//34 63//34 61//34
f 63//34 7//34 3//34
f 23//34 31//34 27//34
f 39//34 47//34 43//34
f 47//34 63//34 51//34
f 51//34 63//34 55//34
f 63//34 15//34 7//34
f 15//34 31//34 23//34
f 31//34 47//34 39//34
f 63//34 47//34 15//34
v 0.164022 -0.506628 -1.000000
v 0.164022 -0.506628 1.000000
v -0.136944 -0.331812 1.000000
v -0.136944 -0.331812 -1.000000
v 0.164022 0.972682 -0.999999
v 0.164022 0.972682 1.000001
v -0.136944 0.798314 1.000000
v -0.136944 0.798314 -1.000000
v 0.164022 -0.412518 -0.872765
v 0.164022 -0.412518 0.872765
v 0.164022 0.878572 -0.872765
v 0.164022 0.878572 0.872765
v 0.150366 -0.412518 -0.872765
v 0.150366 -0.412518 0.872765
v 0.150366 0.878572 -0.872765
v 0.150366 0.878572 0.872765
v 0.164022 -0.506628 -0.600000
v 0.164022 -0.506628 -0.200000
v 0.164022 -0.506628 0.200000
v 0.164022 -0.506628 0.600000
v -0.136944 -0.331812 0.600000
v -0.136944 -0.331812 0.200000
v -0.136944 -0.331812 -0.200000
v -0.136944 -0.331812 -0.600000
v 0.164022 0.972682 -0.599999
v 0.164022 0.972682 -0.199999
v 0.164022 0.972682 0.200001
v 0.164022 0.972682 0.600001
v -0.136944 0.798314 0.600000
v -0.136944 0.798314 0.200000
v -0.136944 0.798314 -0.200000
v -0.136944 0.798314 -0.600000
v 0.164022 -0.412518 -0.523659
v 0.164022 -0.412518 -0.174553
v 0.164022 -0.412518 0.174553
v 0.164022 -0.412518 0.523659
v 0.164022 0.878572 -0.523659
v 0.164022 0.878572 -0.174553
v 0.164022 0.878572 0.174554
v 0.164022 0.878572 0.523659
v 0.198724 -0.412518 -0.523659
v 0.217033 -0.412518 -0.174553
v 0.217033 -0.412518 0.174553
v 0.198724 -0.412518 0.523659
v 0.198724 0.878572 -0.523659
v 0.217033 0.878572 -0.174553
v 0.217033 0.878572 0.174554
v 0.198724 0.878572 0.523659
v -0.074453 -0.738390 -0.200000
v -0.074453 -0.738390 0.200000
v -0.375419 -0.742375 0.200000
v -0.375419 -0.742375 -0.200000
vn -0.5023 -0.8647 0.0000
vn -0.5013 0.8653 0.0000
vn 1.0000 0.0000 -0.0000
vn 0.0000 -0.0000 1.0000
vn -1.0000 -0.0000 0.0000
vn 0.0000 0.0000 -1.0000
vn 0.0000 -1.0000 0.0000
vn 0.0000 1.0000 0.0000
vn -0.8647 0.5023 0.0000
vn 0.0132 -0.9999 0.0000
vn 0.6969 -0.7171 0.0000
vn 0.9905 -0.0000 0.1372
vn 0.9905 0.0000 -0.1372
vn 0.9986 -0.0000 -0.0524
vn 0.9986 0.0000 0.0524
usemtl Material
s off
f 84//35 67//35 85//35
f 92//36 71//36 70//36
f 66//37 76//37 70//37
f 70//38 67//38 66//38
f 88//39 72//39 68//39
f 69//40 68//40 72//40
f 74//40 80//40 76//40
f 69//37 73//37 65//37
f 81//37 73//37 97//37
f 92//37 76//37 104//37
f 97//41 77//41 105//41
f 104//42 80//42 112//42
f 75//38 77//38 73//38
f 75//41 109//41 79//41
f 102//42 109//42 101//42
f 103//42 110//42 102//42
f 103//42 112//42 111//42
f 74//42 108//42 78//42
f 99//41 108//41 100//41
f 98//41 107//41 99//41
f 98//41 105//41 106//41
f 89//37 75//37 69//37
f 90//37 101//37 89//37
f 90//37 103//37 102//37
f 91//37 104//37 103//37
f 84//37 74//37 66//37
f 83//37 100//37 84//37
f 82//37 99//37 83//37
f 82//37 97//37 98//37
f 71//39 85//39 67//39
f 93//39 86//39 85//39
f 86//39 95//39 87//39
f 95//39 88//39 87//39
f 69//36 96//36 89//36
f 89//36 95//36 90//36
f 90//36 94//36 91//36
f 91//36 93//36 92//36
f 65//35 88//35 68//35
f 81//35 87//35 88//35
f 87//43 115//43 86//43
f 83//35 85//35 86//35
f 113//44 115//44 116//44
f 87//40 113//40 116//40
f 83//45 113//45 82//45
f 86//38 114//38 83//38
f 84//35 66//35 67//35
f 92//36 93//36 71//36
f 66//37 74//37 76//37
f 70//38 71//38 67//38
f 88//39 96//39 72//39
f 69//40 65//40 68//40
f 74//40 78//40 80//40
f 69//37 75//37 73//37
f 81//37 65//37 73//37
f 92//37 70//37 76//37
f 97//42 73//42 77//42
f 104//41 76//41 80//41
f 75//38 79//38 77//38
f 75//42 101//42 109//42
f 102//42 110//42 109//42
f 103//42 111//42 110//42
f 103//42 104//42 112//42
f 74//41 100//41 108//41
f 99//41 107//41 108//41
f 98//41 106//41 107//41
f 98//41 97//41 105//41
f 89//37 101//37 75//37
f 90//37 102//37 101//37
f 90//37 91//37 103//37
f 91//37 92//37 104//37
f 84//37 100//37 74//37
f 83//37 99//37 100//37
f 82//37 98//37 99//37
f 82//37 81//37 97//37
f 71//39 93//39 85//39
f 93//39 94//39 86//39
f 86//39 94//39 95//39
f 95//39 96//39 88//39
f 69//36 72//36 96//36
f 89//36 96//36 95//36
f 90//36 95//36 94//36
f 91//36 94//36 93//36
f 65//35 81//35 88//35
f 81//35 82//35 87//35
f 87//43 116//43 115//43
f 83//35 84//35 85//35
f 113//44 114//44 115//44
f 87//40 82//40 113//40
f 83//45 114//45 113//45
f 86//38 115//38 114//38
usemtl Material.001
f 112//46 78//46 108//46
f 79//47 105//47 77//47
f 109//48 106//48 105//48
f 110//37 107//37 106//37
f 111//49 108//49 107//49
f 112//46 80//46 78//46
f 79//47 109//47 105//47
f 109//48 110//48 106//48
f 110//37 111//37 107//37
f 111//49 112//49 108//49
o collision_box_1_Cube.001
v -1.000000 -1.000000 1.000000
v -1.000000 1.000000 1.000000
v -1.000000 -1.000000 -1.000000
v -1.000000 1.000000 -1.000000
v 1.000000 -1.000000 1.000000
v 1.000000 1.000000 1.000000
v 1.000000 -1.000000 -1.000000
v 1.000000 1.000000 -1.000000
vn -1.0000 0.0000 0.0000
vn 0.0000 0.0000 -1.0000
vn 1.0000 0.0000 0.0000
vn 0.0000 0.0000 1.0000
vn 0.0000 -1.0000 0.0000
vn 0.0000 1.0000 0.0000
usemtl Material.001
s off
f 1558//46 1559//46 1557//46
f 1560//47 1563//47 1559//47
f 1564//48 1561//48 1563//48
f 1562//49 1557//49 1561//49
f 1563//50 1557//50 1559//50
f 1560//51 1562//51 1564//51
f 1558//46 1560//46 1559//46
f 1560//47 1564//47 1563//47
f 1564//48 1562//48 1561//48
f 1562//49 1558//49 1557//49
f 1563//50 1561//50 1557//50
f 1560//51 1558//51 1562//51
