# Blender v2.79 (sub 6) OBJ File: ''
# www.blender.org
mtllib roadpart.mtl
v -1.000000 1.000000 1.000000
v -1.000000 0.500000 1.000000
v -1.000000 0.500000 -1.000000
v 1.000000 0.500000 1.000000
v 1.000000 1.000000 -1.000000
v 1.000000 0.500000 -1.000000
v 1.000000 1.000000 1.000000
v -1.000000 1.000000 -1.000000
v -0.666667 1.000000 -0.200000
v -0.666667 1.000000 0.200000
v 0.666667 1.000000 0.200000
v 0.666667 1.000000 -0.200000
vn 0.0000 1.0000 0.0000
vn 0.0000 -1.0000 0.0000
vn 0.0000 -0.0000 1.0000
vn 0.0000 0.0000 -1.0000
vn -1.0000 0.0000 0.0000
vn 1.0000 0.0000 0.0000
usemtl Material.001
s off
f 5//1 11//1 7//1
f 3//2 4//2 2//2
f 10//1 7//1 11//1
f 1//3 4//3 7//3
f 5//1 9//1 12//1
f 3//4 5//4 6//4
f 2//5 8//5 3//5
f 6//6 7//6 4//6
f 9//1 1//1 10//1
f 5//1 12//1 11//1
f 3//2 6//2 4//2
f 10//1 1//1 7//1
f 1//3 2//3 4//3
f 5//1 8//1 9//1
f 3//4 8//4 5//4
f 2//5 1//5 8//5
f 6//6 5//6 7//6
f 9//1 8//1 1//1
usemtl Material.002
f 12//1 10//1 11//1
f 12//1 9//1 10//1
o collision_box_1_Cube.001
v -1.000000 -1.000000 1.000000
v -1.000000 1.000000 1.000000
v -1.000000 -1.000000 -1.000000
v -1.000000 1.000000 -1.000000
v 1.000000 -1.000000 1.000000
v 1.000000 1.000000 1.000000
v 1.000000 -1.000000 -1.000000
v 1.000000 1.000000 -1.000000
vn -1.0000 0.0000 0.0000
vn 0.0000 0.0000 -1.0000
vn 1.0000 0.0000 0.0000
vn 0.0000 0.0000 1.0000
vn 0.0000 -1.0000 0.0000
vn 0.0000 1.0000 0.0000
usemtl None
s off
f 1558//46 1559//46 1557//46
f 1560//47 1563//47 1559//47
f 1564//48 1561//48 1563//48
f 1562//49 1557//49 1561//49
f 1563//50 1557//50 1559//50
f 1560//51 1562//51 1564//51
f 1558//46 1560//46 1559//46
f 1560//47 1564//47 1563//47
f 1564//48 1562//48 1561//48
f 1562//49 1558//49 1557//49
f 1563//50 1561//50 1557//50
f 1560//51 1558//51 1562//51

