# Blender MTL File: 'None'
# Material Count: 7

newmtl Material.004
Ns 506.250000
Ka 1.000000 1.000000 1.000000
Kd 0.800000 0.800000 0.800000
Ks 0.500000 0.500000 0.500000
Ke 0.0 0.0 0.0
Ni 1.000000
d 1.000000
illum 2

newmtl Material.005
Ns 506.250000
Ka 1.000000 1.000000 1.000000
Kd 0.018849 0.016314 0.016314
Ks 0.500000 0.500000 0.500000
Ke 0.0 0.0 0.0
Ni 1.000000
d 1.000000
illum 2

newmtl Material.006
Ns 506.250000
Ka 1.000000 1.000000 1.000000
Kd 0.076240 0.218787 0.800000
Ks 0.500000 0.500000 0.500000
Ke 0.0 0.0 0.0
Ni 1.000000
d 1.000000
illum 2

newmtl Material.007
Ns 506.250000
Ka 1.000000 1.000000 1.000000
Kd 0.800000 0.005471 0.024409
Ks 0.500000 0.500000 0.500000
Ke 0.0 0.0 0.0
Ni 1.000000
d 1.000000
illum 2

newmtl Material.008
Ns 506.250000
Ka 1.000000 1.000000 1.000000
Kd 0.800000 0.111450 0.000000
Ks 0.500000 0.500000 0.500000
Ke 0.0 0.0 0.0
Ni 1.000000
d 1.000000
illum 2

newmtl Material.009
Ns 506.250000
Ka 1.000000 1.000000 1.000000
Kd 0.120672 0.800000 0.003328
Ks 0.500000 0.500000 0.500000
Ke 0.0 0.0 0.0
Ni 1.000000
d 1.000000
illum 2

newmtl Material.010
Ns 506.250000
Ka 1.000000 1.000000 1.000000
Kd 0.800000 0.784488 0.003970
Ks 0.500000 0.500000 0.500000
Ke 0.0 0.0 0.0
Ni 1.000000
d 1.000000
illum 2

newmtl None
Ns 500
Ka 0.8 0.8 0.8
Kd 0.8 0.8 0.8
Ks 0.8 0.8 0.8
d 1
illum 2

