# Blender v2.81 (sub 16) OBJ File: ''
# www.blender.org
mtllib target.mtl
o Cylinder
v -0.206846 2.171172 -1.722404
v 0.405409 2.430017 -1.722404
v -0.334660 2.473495 -1.689308
v 0.277595 2.732340 -1.689308
v -0.457562 2.764200 -1.591294
v 0.154693 3.023045 -1.591294
v -0.570829 3.032115 -1.432126
v 0.041426 3.290960 -1.432126
v -0.670109 3.266945 -1.217923
v -0.057853 3.525790 -1.217923
v -0.751585 3.459664 -0.956916
v -0.139330 3.718509 -0.956916
v -0.812128 3.602868 -0.659135
v -0.199872 3.861713 -0.659135
v -0.849410 3.691052 -0.336024
v -0.237154 3.949897 -0.336024
v -0.861998 3.720829 -0.000000
v -0.249743 3.979673 -0.000000
v -0.849410 3.691052 0.336024
v -0.237154 3.949897 0.336024
v -0.812128 3.602868 0.659135
v -0.199872 3.861713 0.659135
v -0.751585 3.459664 0.956916
v -0.139330 3.718509 0.956916
v -0.670109 3.266945 1.217923
v -0.057853 3.525790 1.217923
v -0.570829 3.032115 1.432127
v 0.041426 3.290960 1.432127
v -0.457562 2.764200 1.591294
v 0.154693 3.023045 1.591294
v -0.334660 2.473495 1.689308
v 0.277595 2.732340 1.689308
v -0.206846 2.171172 1.722404
v 0.405409 2.430017 1.722404
v -0.079032 1.868849 1.689308
v 0.533223 2.127694 1.689308
v 0.043870 1.578144 1.591293
v 0.656125 1.836989 1.591293
v 0.157137 1.310229 1.432126
v 0.769392 1.569074 1.432126
v 0.256416 1.075399 1.217923
v 0.868672 1.334244 1.217923
v 0.337893 0.882680 0.956915
v 0.950148 1.141525 0.956915
v 0.398435 0.739476 0.659134
v 1.010691 0.998321 0.659134
v 0.435717 0.651292 0.336023
v 1.047973 0.910137 0.336023
v 0.448306 0.621516 -0.000002
v 1.060561 0.880361 -0.000002
v 0.435717 0.651293 -0.336026
v 1.047973 0.910138 -0.336026
v 0.398435 0.739478 -0.659137
v 1.010690 0.998322 -0.659137
v 0.337892 0.882681 -0.956918
v 0.950148 1.141526 -0.956918
v 0.256415 1.075401 -1.217925
v 0.868671 1.334246 -1.217925
v 0.157136 1.310231 -1.432128
v 0.769391 1.569076 -1.432128
v 0.043869 1.578147 -1.591295
v 0.656124 1.836992 -1.591295
v -0.079034 1.868852 -1.689309
v 0.533222 2.127697 -1.689309
v 0.277595 2.732340 -1.689308
v 0.405409 2.430017 -1.722404
v 0.154693 3.023045 -1.591294
v 0.041426 3.290960 -1.432126
v -0.057853 3.525790 -1.217923
v -0.139330 3.718509 -0.956916
v -0.199872 3.861713 -0.659135
v -0.237154 3.949897 -0.336024
v -0.249743 3.979673 -0.000000
v -0.237154 3.949897 0.336024
v -0.199872 3.861713 0.659135
v -0.139330 3.718509 0.956916
v -0.057853 3.525790 1.217923
v 0.041426 3.290960 1.432127
v 0.154693 3.023045 1.591294
v 0.277595 2.732340 1.689308
v 0.405409 2.430017 1.722404
v 0.533223 2.127694 1.689308
v 0.656125 1.836989 1.591293
v 0.769392 1.569074 1.432126
v 0.868672 1.334244 1.217923
v 0.950148 1.141525 0.956915
v 1.010691 0.998321 0.659134
v 1.047973 0.910137 0.336023
v 1.060561 0.880361 -0.000002
v 1.047973 0.910138 -0.336026
v 1.010690 0.998322 -0.659137
v 0.950148 1.141526 -0.956918
v 0.868671 1.334246 -1.217925
v 0.769391 1.569076 -1.432128
v 0.656124 1.836992 -1.591295
v 0.533222 2.127697 -1.689309
v 0.277595 2.732340 -1.689308
v 0.405409 2.430017 -1.722404
v 0.154693 3.023045 -1.591294
v 0.041426 3.290960 -1.432126
v -0.057853 3.525790 -1.217923
v -0.139330 3.718509 -0.956916
v -0.199872 3.861713 -0.659135
v -0.237154 3.949897 -0.336024
v -0.249743 3.979673 -0.000000
v -0.237154 3.949897 0.336024
v -0.199872 3.861713 0.659135
v -0.139330 3.718509 0.956916
v -0.057853 3.525790 1.217923
v 0.041426 3.290960 1.432127
v 0.154693 3.023045 1.591294
v 0.277595 2.732340 1.689308
v 0.405409 2.430017 1.722404
v 0.533223 2.127694 1.689308
v 0.656125 1.836989 1.591293
v 0.769392 1.569074 1.432126
v 0.868672 1.334244 1.217923
v 0.950148 1.141525 0.956915
v 1.010691 0.998321 0.659134
v 1.047973 0.910137 0.336023
v 1.060561 0.880361 -0.000002
v 1.047973 0.910138 -0.336026
v 1.010690 0.998322 -0.659137
v 0.950148 1.141526 -0.956918
v 0.868671 1.334246 -1.217925
v 0.769391 1.569076 -1.432128
v 0.656124 1.836992 -1.591295
v 0.533222 2.127697 -1.689309
v 0.277595 2.732340 -1.689308
v 0.405409 2.430017 -1.722404
v 0.154693 3.023045 -1.591294
v 0.041426 3.290960 -1.432126
v -0.057853 3.525790 -1.217923
v -0.139330 3.718509 -0.956916
v -0.199872 3.861713 -0.659135
v -0.237154 3.949897 -0.336024
v -0.249743 3.979673 -0.000000
v -0.237154 3.949897 0.336024
v -0.199872 3.861713 0.659135
v -0.139330 3.718509 0.956916
v -0.057853 3.525790 1.217923
v 0.041426 3.290960 1.432127
v 0.154693 3.023045 1.591294
v 0.277595 2.732340 1.689308
v 0.405409 2.430017 1.722404
v 0.533223 2.127694 1.689308
v 0.656125 1.836989 1.591293
v 0.769392 1.569074 1.432126
v 0.868672 1.334244 1.217923
v 0.950148 1.141525 0.956915
v 1.010691 0.998321 0.659134
v 1.047973 0.910137 0.336023
v 1.060561 0.880361 -0.000002
v 1.047973 0.910138 -0.336026
v 1.010690 0.998322 -0.659137
v 0.950148 1.141526 -0.956918
v 0.868671 1.334246 -1.217925
v 0.769391 1.569076 -1.432128
v 0.656124 1.836992 -1.591295
v 0.533222 2.127697 -1.689309
v 0.309105 2.657809 -1.272847
v 0.405409 2.430017 -1.297783
v 0.216502 2.876847 -1.198995
v 0.131158 3.078713 -1.079067
v 0.056354 3.255651 -0.917671
v -0.005037 3.400860 -0.721010
v -0.050654 3.508760 -0.496640
v -0.078744 3.575204 -0.253185
v -0.088230 3.597640 -0.000000
v -0.078744 3.575204 0.253185
v -0.050654 3.508760 0.496640
v -0.005037 3.400860 0.721009
v 0.056354 3.255651 0.917671
v 0.131158 3.078713 1.079067
v 0.216502 2.876847 1.198995
v 0.309105 2.657809 1.272846
v 0.405409 2.430017 1.297783
v 0.501714 2.202225 1.272846
v 0.594317 1.983187 1.198995
v 0.679660 1.781320 1.079067
v 0.754465 1.604383 0.917670
v 0.815855 1.459174 0.721009
v 0.861472 1.351274 0.496639
v 0.889563 1.284830 0.253184
v 0.899048 1.262395 -0.000001
v 0.889563 1.284830 -0.253186
v 0.861472 1.351275 -0.496642
v 0.815854 1.459175 -0.721011
v 0.754464 1.604384 -0.917672
v 0.679660 1.781322 -1.079068
v 0.594316 1.983189 -1.198996
v 0.501713 2.202227 -1.272847
v 0.339776 2.585262 -0.867469
v 0.405409 2.430017 -0.884464
v 0.276665 2.734540 -0.817138
v 0.218502 2.872116 -0.735405
v 0.167521 2.992702 -0.625410
v 0.125683 3.091665 -0.491382
v 0.094594 3.165201 -0.338470
v 0.075449 3.210484 -0.172551
v 0.068985 3.225774 -0.000000
v 0.075449 3.210484 0.172550
v 0.094594 3.165201 0.338469
v 0.125683 3.091665 0.491381
v 0.167521 2.992702 0.625410
v 0.218502 2.872116 0.735404
v 0.276665 2.734540 0.817138
v 0.339776 2.585262 0.867469
v 0.405409 2.430017 0.884464
v 0.471042 2.274772 0.867469
v 0.534153 2.125494 0.817137
v 0.592317 1.987918 0.735404
v 0.643297 1.867332 0.625410
v 0.685136 1.768369 0.491381
v 0.716225 1.694834 0.338469
v 0.735369 1.649550 0.172549
v 0.741833 1.634260 -0.000001
v 0.735369 1.649551 -0.172551
v 0.716224 1.694834 -0.338471
v 0.685135 1.768370 -0.491383
v 0.643297 1.867333 -0.625411
v 0.592316 1.987919 -0.735406
v 0.534153 2.125495 -0.817139
v 0.471042 2.274774 -0.867469
v 0.369947 2.513897 -0.468698
v 0.405409 2.430017 -0.477880
v 0.335848 2.594553 -0.441504
v 0.304422 2.668885 -0.397343
v 0.276877 2.734039 -0.337912
v 0.254272 2.787509 -0.265496
v 0.237474 2.827240 -0.182877
v 0.227130 2.851707 -0.093230
v 0.223637 2.859969 -0.000000
v 0.227130 2.851707 0.093229
v 0.237474 2.827240 0.182876
v 0.254272 2.787509 0.265495
v 0.276877 2.734039 0.337912
v 0.304422 2.668885 0.397342
v 0.335848 2.594553 0.441503
v 0.369947 2.513896 0.468697
v 0.405409 2.430017 0.477880
v 0.440871 2.346138 0.468697
v 0.474970 2.265482 0.441503
v 0.506396 2.191149 0.397342
v 0.533941 2.125996 0.337911
v 0.556547 2.072526 0.265495
v 0.573344 2.032794 0.182876
v 0.583688 2.008327 0.093229
v 0.587181 2.000066 -0.000001
v 0.583688 2.008327 -0.093231
v 0.573344 2.032794 -0.182878
v 0.556546 2.072526 -0.265497
v 0.533941 2.125996 -0.337913
v 0.506396 2.191150 -0.397343
v 0.474970 2.265483 -0.441504
v 0.440871 2.346138 -0.468698
v 0.369947 2.513897 -0.468698
v 0.405409 2.430017 -0.477880
v 0.335848 2.594553 -0.441504
v 0.304422 2.668885 -0.397343
v 0.276877 2.734039 -0.337912
v 0.254272 2.787509 -0.265496
v 0.237474 2.827240 -0.182877
v 0.227130 2.851707 -0.093230
v 0.223637 2.859969 -0.000000
v 0.227130 2.851707 0.093229
v 0.237474 2.827240 0.182876
v 0.254272 2.787509 0.265495
v 0.276877 2.734039 0.337912
v 0.304422 2.668885 0.397342
v 0.335848 2.594553 0.441503
v 0.369947 2.513896 0.468697
v 0.405409 2.430017 0.477880
v 0.440871 2.346138 0.468697
v 0.474970 2.265482 0.441503
v 0.506396 2.191149 0.397342
v 0.533941 2.125996 0.337911
v 0.556547 2.072526 0.265495
v 0.573344 2.032794 0.182876
v 0.583688 2.008327 0.093229
v 0.587181 2.000066 -0.000001
v 0.583688 2.008327 -0.093231
v 0.573344 2.032794 -0.182878
v 0.556546 2.072526 -0.265497
v 0.533941 2.125996 -0.337913
v 0.506396 2.191150 -0.397343
v 0.474970 2.265483 -0.441504
v 0.440871 2.346138 -0.468698
v 0.385377 2.477400 -0.264764
v 0.405409 2.430017 -0.269951
v 0.366114 2.522962 -0.249403
v 0.348362 2.564952 -0.224456
v 0.332802 2.601757 -0.190885
v 0.320032 2.631962 -0.149977
v 0.310544 2.654406 -0.103306
v 0.304700 2.668227 -0.052665
v 0.302727 2.672894 -0.000000
v 0.304700 2.668227 0.052664
v 0.310544 2.654406 0.103305
v 0.320032 2.631962 0.149976
v 0.332802 2.601757 0.190884
v 0.348362 2.564952 0.224456
v 0.366114 2.522962 0.249402
v 0.385377 2.477400 0.264763
v 0.405409 2.430017 0.269950
v 0.425441 2.382634 0.264763
v 0.444703 2.337072 0.249402
v 0.462456 2.295082 0.224455
v 0.478016 2.258278 0.190884
v 0.490785 2.228073 0.149976
v 0.500274 2.205629 0.103305
v 0.506117 2.191808 0.052664
v 0.508090 2.187141 -0.000001
v 0.506117 2.191808 -0.052666
v 0.500274 2.205629 -0.103306
v 0.490785 2.228073 -0.149977
v 0.478016 2.258278 -0.190885
v 0.462456 2.295083 -0.224457
v 0.444703 2.337073 -0.249403
v 0.425441 2.382635 -0.264764
vn -0.0391 0.0924 -0.9950
vn -0.1155 0.2732 -0.9550
vn -0.1869 0.4421 -0.8773
vn -0.2505 0.5925 -0.7656
vn -0.3038 0.7187 -0.6255
vn -0.3452 0.8165 -0.4628
vn -0.3734 0.8831 -0.2841
vn -0.3876 0.9168 -0.0958
vn -0.3876 0.9168 0.0958
vn -0.3734 0.8831 0.2841
vn -0.3452 0.8165 0.4628
vn -0.3038 0.7187 0.6255
vn -0.2505 0.5925 0.7656
vn -0.1869 0.4421 0.8773
vn -0.1155 0.2732 0.9550
vn -0.0391 0.0924 0.9950
vn 0.0391 -0.0924 0.9950
vn 0.1155 -0.2732 0.9550
vn 0.1869 -0.4421 0.8772
vn 0.2505 -0.5925 0.7656
vn 0.3038 -0.7187 0.6255
vn 0.3452 -0.8165 0.4628
vn 0.3734 -0.8831 0.2841
vn 0.3876 -0.9168 0.0958
vn 0.3876 -0.9168 -0.0958
vn 0.3734 -0.8831 -0.2841
vn 0.3452 -0.8165 -0.4628
vn 0.3038 -0.7187 -0.6255
vn 0.2505 -0.5925 -0.7656
vn 0.1869 -0.4421 -0.8773
vn 0.0000 0.0000 1.0000
vn 0.1155 -0.2732 -0.9550
vn 0.0391 -0.0924 -0.9950
vn 0.9211 0.3894 -0.0000
vn 0.1869 -0.4421 0.8773
vn -0.9211 -0.3894 -0.0000
usemtl Material.001
s off
f 2//1 1//1 3//1
f 4//2 3//2 5//2
f 6//3 5//3 7//3
f 8//4 7//4 9//4
f 10//5 9//5 11//5
f 12//6 11//6 13//6
f 14//7 13//7 15//7
f 16//8 15//8 17//8
f 18//9 17//9 19//9
f 20//10 19//10 21//10
f 22//11 21//11 23//11
f 24//12 23//12 25//12
f 26//13 25//13 27//13
f 28//14 27//14 29//14
f 30//15 29//15 31//15
f 32//16 31//16 33//16
f 34//17 33//17 35//17
f 36//18 35//18 37//18
f 38//19 37//19 39//19
f 40//20 39//20 41//20
f 42//21 41//21 43//21
f 44//22 43//22 45//22
f 46//23 45//23 47//23
f 48//24 47//24 49//24
f 50//25 49//25 51//25
f 52//26 51//26 53//26
f 54//27 53//27 55//27
f 56//28 55//28 57//28
f 58//29 57//29 59//29
f 60//30 59//30 61//30
f 42//31 85//31 84//31
f 62//32 61//32 63//32
f 64//33 63//33 1//33
f 96//31 128//31 127//31
f 60//31 94//31 93//31
f 16//31 72//31 71//31
f 34//31 81//31 80//31
f 52//31 90//31 89//31
f 8//31 68//31 67//31
f 26//31 77//31 76//31
f 44//31 86//31 85//31
f 62//31 95//31 94//31
f 18//31 73//31 72//31
f 36//31 82//31 81//31
f 54//31 91//31 90//31
f 10//31 69//31 68//31
f 28//31 78//31 77//31
f 46//31 87//31 86//31
f 64//31 96//31 95//31
f 20//31 74//31 73//31
f 38//31 83//31 82//31
f 56//31 92//31 91//31
f 12//31 70//31 69//31
f 30//31 79//31 78//31
f 48//31 88//31 87//31
f 4//31 65//31 66//31
f 2//31 66//31 96//31
f 22//31 75//31 74//31
f 40//31 84//31 83//31
f 58//31 93//31 92//31
f 14//31 71//31 70//31
f 32//31 80//31 79//31
f 50//31 89//31 88//31
f 6//31 67//31 65//31
f 24//31 76//31 75//31
f 118//31 150//31 149//31
f 83//31 115//31 114//31
f 70//31 102//31 101//31
f 66//31 98//31 128//31
f 84//31 116//31 115//31
f 71//31 103//31 102//31
f 85//31 117//31 116//31
f 72//31 104//31 103//31
f 86//31 118//31 117//31
f 73//31 105//31 104//31
f 87//31 119//31 118//31
f 74//31 106//31 105//31
f 88//31 120//31 119//31
f 75//31 107//31 106//31
f 89//31 121//31 120//31
f 76//31 108//31 107//31
f 90//31 122//31 121//31
f 77//31 109//31 108//31
f 91//31 123//31 122//31
f 78//31 110//31 109//31
f 92//31 124//31 123//31
f 79//31 111//31 110//31
f 65//31 97//31 98//31
f 93//31 125//31 124//31
f 80//31 112//31 111//31
f 67//31 99//31 97//31
f 94//31 126//31 125//31
f 81//31 113//31 112//31
f 68//31 100//31 99//31
f 95//31 127//31 126//31
f 82//31 114//31 113//31
f 69//31 101//31 100//31
f 153//34 185//34 184//34
f 105//31 137//31 136//31
f 119//31 151//31 150//31
f 106//31 138//31 137//31
f 120//31 152//31 151//31
f 107//31 139//31 138//31
f 121//31 153//31 152//31
f 108//31 140//31 139//31
f 122//31 154//31 153//31
f 109//31 141//31 140//31
f 123//31 155//31 154//31
f 110//31 142//31 141//31
f 124//31 156//31 155//31
f 111//31 143//31 142//31
f 97//31 129//31 130//31
f 125//31 157//31 156//31
f 112//31 144//31 143//31
f 99//31 131//31 129//31
f 126//31 158//31 157//31
f 113//31 145//31 144//31
f 100//31 132//31 131//31
f 127//31 159//31 158//31
f 114//31 146//31 145//31
f 101//31 133//31 132//31
f 128//31 160//31 159//31
f 115//31 147//31 146//31
f 102//31 134//31 133//31
f 98//31 130//31 160//31
f 116//31 148//31 147//31
f 103//31 135//31 134//31
f 117//31 149//31 148//31
f 104//31 136//31 135//31
f 139//34 140//34 172//34
f 154//34 186//34 185//34
f 141//34 173//34 172//34
f 155//34 187//34 186//34
f 141//34 142//34 174//34
f 155//34 156//34 188//34
f 142//34 143//34 175//34
f 130//34 129//34 161//34
f 157//34 189//34 188//34
f 143//34 144//34 176//34
f 129//34 131//34 163//34
f 157//34 158//34 190//34
f 144//34 145//34 177//34
f 131//34 132//34 164//34
f 158//34 159//34 191//34
f 146//34 178//34 177//34
f 132//34 133//34 165//34
f 160//34 192//34 191//34
f 147//34 179//34 178//34
f 133//34 134//34 166//34
f 160//34 130//34 162//34
f 147//34 148//34 180//34
f 134//34 135//34 167//34
f 149//34 181//34 180//34
f 135//34 136//34 168//34
f 150//34 182//34 181//34
f 136//34 137//34 169//34
f 151//34 183//34 182//34
f 137//34 138//34 170//34
f 152//34 184//34 183//34
f 138//34 139//34 171//34
f 195//34 196//34 228//34
f 231//31 263//31 262//31
f 223//34 255//34 254//34
f 209//34 210//34 242//34
f 196//34 197//34 229//34
f 223//34 224//34 256//34
f 210//34 211//34 243//34
f 197//34 198//34 230//34
f 224//34 194//34 226//34
f 211//34 212//34 244//34
f 198//34 199//34 231//34
f 212//34 213//34 245//34
f 199//34 200//34 232//34
f 213//34 214//34 246//34
f 200//34 201//34 233//34
f 214//34 215//34 247//34
f 201//34 202//34 234//34
f 215//34 216//34 248//34
f 202//34 203//34 235//34
f 216//34 217//34 249//34
f 203//34 204//34 236//34
f 218//34 250//34 249//34
f 204//34 205//34 237//34
f 218//34 219//34 251//34
f 205//34 206//34 238//34
f 219//34 220//34 252//34
f 206//34 207//34 239//34
f 193//34 225//34 226//34
f 221//34 253//34 252//34
f 207//34 208//34 240//34
f 193//34 195//34 227//34
f 221//34 222//34 254//34
f 208//34 209//34 241//34
f 245//31 277//31 276//31
f 232//31 264//31 263//31
f 246//31 278//31 277//31
f 233//31 265//31 264//31
f 247//31 279//31 278//31
f 234//31 266//31 265//31
f 248//31 280//31 279//31
f 235//31 267//31 266//31
f 249//31 281//31 280//31
f 236//31 268//31 267//31
f 250//31 282//31 281//31
f 237//31 269//31 268//31
f 251//31 283//31 282//31
f 238//31 270//31 269//31
f 252//31 284//31 283//31
f 239//31 271//31 270//31
f 225//31 257//31 258//31
f 253//31 285//31 284//31
f 240//31 272//31 271//31
f 227//31 259//31 257//31
f 254//31 286//31 285//31
f 241//31 273//31 272//31
f 228//31 260//31 259//31
f 255//31 287//31 286//31
f 242//31 274//31 273//31
f 229//31 261//31 260//31
f 256//31 288//31 287//31
f 243//31 275//31 274//31
f 230//31 262//31 261//31
f 226//31 258//31 288//31
f 244//31 276//31 275//31
f 307//34 291//34 299//34
f 2//1 3//1 4//1
f 4//2 5//2 6//2
f 6//3 7//3 8//3
f 8//4 9//4 10//4
f 10//5 11//5 12//5
f 12//6 13//6 14//6
f 14//7 15//7 16//7
f 16//8 17//8 18//8
f 18//9 19//9 20//9
f 20//10 21//10 22//10
f 22//11 23//11 24//11
f 24//12 25//12 26//12
f 26//13 27//13 28//13
f 28//14 29//14 30//14
f 30//15 31//15 32//15
f 32//16 33//16 34//16
f 34//17 35//17 36//17
f 36//18 37//18 38//18
f 38//35 39//35 40//35
f 40//20 41//20 42//20
f 42//21 43//21 44//21
f 44//22 45//22 46//22
f 46//23 47//23 48//23
f 48//24 49//24 50//24
f 50//25 51//25 52//25
f 52//26 53//26 54//26
f 54//27 55//27 56//27
f 56//28 57//28 58//28
f 58//29 59//29 60//29
f 60//30 61//30 62//30
f 42//31 84//31 40//31
f 62//32 63//32 64//32
f 64//33 1//33 2//33
f 96//31 127//31 95//31
f 60//31 93//31 58//31
f 16//31 71//31 14//31
f 34//31 80//31 32//31
f 52//31 89//31 50//31
f 8//31 67//31 6//31
f 26//31 76//31 24//31
f 44//31 85//31 42//31
f 62//31 94//31 60//31
f 18//31 72//31 16//31
f 36//31 81//31 34//31
f 54//31 90//31 52//31
f 10//31 68//31 8//31
f 28//31 77//31 26//31
f 46//31 86//31 44//31
f 64//31 95//31 62//31
f 20//31 73//31 18//31
f 38//31 82//31 36//31
f 56//31 91//31 54//31
f 12//31 69//31 10//31
f 30//31 78//31 28//31
f 48//31 87//31 46//31
f 4//31 66//31 2//31
f 2//31 96//31 64//31
f 22//31 74//31 20//31
f 40//31 83//31 38//31
f 58//31 92//31 56//31
f 14//31 70//31 12//31
f 32//31 79//31 30//31
f 50//31 88//31 48//31
f 6//31 65//31 4//31
f 24//31 75//31 22//31
f 118//31 149//31 117//31
f 83//31 114//31 82//31
f 70//31 101//31 69//31
f 66//31 128//31 96//31
f 84//31 115//31 83//31
f 71//31 102//31 70//31
f 85//31 116//31 84//31
f 72//31 103//31 71//31
f 86//31 117//31 85//31
f 73//31 104//31 72//31
f 87//31 118//31 86//31
f 74//31 105//31 73//31
f 88//31 119//31 87//31
f 75//31 106//31 74//31
f 89//31 120//31 88//31
f 76//31 107//31 75//31
f 90//31 121//31 89//31
f 77//31 108//31 76//31
f 91//31 122//31 90//31
f 78//31 109//31 77//31
f 92//31 123//31 91//31
f 79//31 110//31 78//31
f 65//31 98//31 66//31
f 93//31 124//31 92//31
f 80//31 111//31 79//31
f 67//31 97//31 65//31
f 94//31 125//31 93//31
f 81//31 112//31 80//31
f 68//31 99//31 67//31
f 95//31 126//31 94//31
f 82//31 113//31 81//31
f 69//31 100//31 68//31
f 153//34 184//34 152//34
f 105//31 136//31 104//31
f 119//31 150//31 118//31
f 106//31 137//31 105//31
f 120//31 151//31 119//31
f 107//31 138//31 106//31
f 121//31 152//31 120//31
f 108//31 139//31 107//31
f 122//31 153//31 121//31
f 109//31 140//31 108//31
f 123//31 154//31 122//31
f 110//31 141//31 109//31
f 124//31 155//31 123//31
f 111//31 142//31 110//31
f 97//31 130//31 98//31
f 125//31 156//31 124//31
f 112//31 143//31 111//31
f 99//31 129//31 97//31
f 126//31 157//31 125//31
f 113//31 144//31 112//31
f 100//31 131//31 99//31
f 127//31 158//31 126//31
f 114//31 145//31 113//31
f 101//31 132//31 100//31
f 128//31 159//31 127//31
f 115//31 146//31 114//31
f 102//31 133//31 101//31
f 98//31 160//31 128//31
f 116//31 147//31 115//31
f 103//31 134//31 102//31
f 117//31 148//31 116//31
f 104//31 135//31 103//31
f 139//34 172//34 171//34
f 154//34 185//34 153//34
f 141//34 172//34 140//34
f 155//34 186//34 154//34
f 141//34 174//34 173//34
f 155//34 188//34 187//34
f 142//34 175//34 174//34
f 130//34 161//34 162//34
f 157//34 188//34 156//34
f 143//34 176//34 175//34
f 129//34 163//34 161//34
f 157//34 190//34 189//34
f 144//34 177//34 176//34
f 131//34 164//34 163//34
f 158//34 191//34 190//34
f 146//34 177//34 145//34
f 132//34 165//34 164//34
f 160//34 191//34 159//34
f 147//34 178//34 146//34
f 133//34 166//34 165//34
f 160//34 162//34 192//34
f 147//34 180//34 179//34
f 134//34 167//34 166//34
f 149//34 180//34 148//34
f 135//34 168//34 167//34
f 150//34 181//34 149//34
f 136//34 169//34 168//34
f 151//34 182//34 150//34
f 137//34 170//34 169//34
f 152//34 183//34 151//34
f 138//34 171//34 170//34
f 195//34 228//34 227//34
f 231//31 262//31 230//31
f 223//34 254//34 222//34
f 209//34 242//34 241//34
f 196//34 229//34 228//34
f 223//34 256//34 255//34
f 210//34 243//34 242//34
f 197//34 230//34 229//34
f 224//34 226//34 256//34
f 211//34 244//34 243//34
f 198//34 231//34 230//34
f 212//34 245//34 244//34
f 199//34 232//34 231//34
f 213//34 246//34 245//34
f 200//34 233//34 232//34
f 214//34 247//34 246//34
f 201//34 234//34 233//34
f 215//34 248//34 247//34
f 202//34 235//34 234//34
f 216//34 249//34 248//34
f 203//34 236//34 235//34
f 218//34 249//34 217//34
f 204//34 237//34 236//34
f 218//34 251//34 250//34
f 205//34 238//34 237//34
f 219//34 252//34 251//34
f 206//34 239//34 238//34
f 193//34 226//34 194//34
f 221//34 252//34 220//34
f 207//34 240//34 239//34
f 193//34 227//34 225//34
f 221//34 254//34 253//34
f 208//34 241//34 240//34
f 245//31 276//31 244//31
f 232//31 263//31 231//31
f 246//31 277//31 245//31
f 233//31 264//31 232//31
f 247//31 278//31 246//31
f 234//31 265//31 233//31
f 248//31 279//31 247//31
f 235//31 266//31 234//31
f 249//31 280//31 248//31
f 236//31 267//31 235//31
f 250//31 281//31 249//31
f 237//31 268//31 236//31
f 251//31 282//31 250//31
f 238//31 269//31 237//31
f 252//31 283//31 251//31
f 239//31 270//31 238//31
f 225//31 258//31 226//31
f 253//31 284//31 252//31
f 240//31 271//31 239//31
f 227//31 257//31 225//31
f 254//31 285//31 253//31
f 241//31 272//31 240//31
f 228//31 259//31 227//31
f 255//31 286//31 254//31
f 242//31 273//31 241//31
f 229//31 260//31 228//31
f 256//31 287//31 255//31
f 243//31 274//31 242//31
f 230//31 261//31 229//31
f 226//31 288//31 256//31
f 244//31 275//31 243//31
f 291//34 290//34 289//34
f 290//34 291//34 320//34
f 320//34 291//34 319//34
f 319//34 317//34 318//34
f 317//34 315//34 316//34
f 315//34 311//34 314//34
f 314//34 311//34 313//34
f 313//34 311//34 312//34
f 311//34 309//34 310//34
f 309//34 307//34 308//34
f 307//34 305//34 306//34
f 305//34 307//34 304//34
f 304//34 307//34 303//34
f 303//34 299//34 302//34
f 302//34 299//34 301//34
f 301//34 299//34 300//34
f 299//34 297//34 298//34
f 297//34 299//34 296//34
f 296//34 299//34 295//34
f 295//34 293//34 294//34
f 293//34 291//34 292//34
f 319//34 315//34 317//34
f 311//34 315//34 309//34
f 309//34 315//34 307//34
f 295//34 299//34 293//34
f 293//34 299//34 291//34
f 291//34 307//34 319//34
f 319//34 307//34 315//34
f 307//34 299//34 303//34
usemtl Material.003
f 15//36 47//36 31//36
f 63//36 3//36 1//36
f 3//36 7//36 5//36
f 7//36 11//36 9//36
f 11//36 7//36 13//36
f 13//36 7//36 15//36
f 15//36 19//36 17//36
f 19//36 15//36 21//36
f 21//36 15//36 23//36
f 23//36 31//36 25//36
f 25//36 31//36 27//36
f 27//36 31//36 29//36
f 31//36 35//36 33//36
f 35//36 39//36 37//36
f 39//36 43//36 41//36
f 43//36 47//36 45//36
f 47//36 51//36 49//36
f 51//36 55//36 53//36
f 55//36 63//36 57//36
f 57//36 63//36 59//36
f 59//36 63//36 61//36
f 63//36 7//36 3//36
f 31//36 47//36 35//36
f 35//36 47//36 39//36
f 39//36 47//36 43//36
f 47//36 63//36 51//36
f 51//36 63//36 55//36
f 63//36 15//36 7//36
f 15//36 31//36 23//36
f 63//36 47//36 15//36
usemtl Material.002
f 188//34 220//34 219//34
f 174//34 175//34 207//34
f 161//34 193//34 194//34
f 189//34 221//34 220//34
f 176//34 208//34 207//34
f 161//34 163//34 195//34
f 190//34 222//34 221//34
f 176//34 177//34 209//34
f 164//34 196//34 195//34
f 190//34 191//34 223//34
f 178//34 210//34 209//34
f 164//34 165//34 197//34
f 192//34 224//34 223//34
f 178//34 179//34 211//34
f 165//34 166//34 198//34
f 192//34 162//34 194//34
f 179//34 180//34 212//34
f 166//34 167//34 199//34
f 180//34 181//34 213//34
f 167//34 168//34 200//34
f 181//34 182//34 214//34
f 168//34 169//34 201//34
f 183//34 215//34 214//34
f 169//34 170//34 202//34
f 183//34 184//34 216//34
f 170//34 171//34 203//34
f 184//34 185//34 217//34
f 171//34 172//34 204//34
f 186//34 218//34 217//34
f 172//34 173//34 205//34
f 186//34 187//34 219//34
f 173//34 174//34 206//34
f 266//34 298//34 297//34
f 280//34 312//34 311//34
f 266//34 267//34 299//34
f 281//34 313//34 312//34
f 267//34 268//34 300//34
f 282//34 314//34 313//34
f 268//34 269//34 301//34
f 282//34 283//34 315//34
f 270//34 302//34 301//34
f 283//34 284//34 316//34
f 270//34 271//34 303//34
f 258//34 257//34 289//34
f 285//34 317//34 316//34
f 272//34 304//34 303//34
f 257//34 259//34 291//34
f 286//34 318//34 317//34
f 272//34 273//34 305//34
f 259//34 260//34 292//34
f 286//34 287//34 319//34
f 274//34 306//34 305//34
f 260//34 261//34 293//34
f 287//34 288//34 320//34
f 274//34 275//34 307//34
f 261//34 262//34 294//34
f 288//34 258//34 290//34
f 275//34 276//34 308//34
f 262//34 263//34 295//34
f 276//34 277//34 309//34
f 264//34 296//34 295//34
f 278//34 310//34 309//34
f 264//34 265//34 297//34
f 279//34 311//34 310//34
f 188//34 219//34 187//34
f 174//34 207//34 206//34
f 161//34 194//34 162//34
f 189//34 220//34 188//34
f 176//34 207//34 175//34
f 161//34 195//34 193//34
f 190//34 221//34 189//34
f 176//34 209//34 208//34
f 164//34 195//34 163//34
f 190//34 223//34 222//34
f 178//34 209//34 177//34
f 164//34 197//34 196//34
f 192//34 223//34 191//34
f 178//34 211//34 210//34
f 165//34 198//34 197//34
f 192//34 194//34 224//34
f 179//34 212//34 211//34
f 166//34 199//34 198//34
f 180//34 213//34 212//34
f 167//34 200//34 199//34
f 181//34 214//34 213//34
f 168//34 201//34 200//34
f 183//34 214//34 182//34
f 169//34 202//34 201//34
f 183//34 216//34 215//34
f 170//34 203//34 202//34
f 184//34 217//34 216//34
f 171//34 204//34 203//34
f 186//34 217//34 185//34
f 172//34 205//34 204//34
f 186//34 219//34 218//34
f 173//34 206//34 205//34
f 266//34 297//34 265//34
f 280//34 311//34 279//34
f 266//34 299//34 298//34
f 281//34 312//34 280//34
f 267//34 300//34 299//34
f 282//34 313//34 281//34
f 268//34 301//34 300//34
f 282//34 315//34 314//34
f 270//34 301//34 269//34
f 283//34 316//34 315//34
f 270//34 303//34 302//34
f 258//34 289//34 290//34
f 285//34 316//34 284//34
f 272//34 303//34 271//34
f 257//34 291//34 289//34
f 286//34 317//34 285//34
f 272//34 305//34 304//34
f 259//34 292//34 291//34
f 286//34 319//34 318//34
f 274//34 305//34 273//34
f 260//34 293//34 292//34
f 287//34 320//34 319//34
f 274//34 307//34 306//34
f 261//34 294//34 293//34
f 288//34 290//34 320//34
f 275//34 308//34 307//34
f 262//34 295//34 294//34
f 276//34 309//34 308//34
f 264//34 295//34 263//34
f 278//34 309//34 277//34
f 264//34 297//34 296//34
f 279//34 310//34 278//34
o Cone
v 0.000000 0.044832 -1.072242
v 0.209184 0.044832 -1.051640
v 0.410329 0.044832 -0.990623
v 0.595706 0.044832 -0.891537
v 0.758190 0.044832 -0.758190
v 0.891537 0.044832 -0.595706
v 0.990623 0.044832 -0.410329
v 1.051640 0.044832 -0.209184
v 1.072242 0.044832 -0.000000
v 1.051640 0.044832 0.209184
v 0.990623 0.044832 0.410329
v 0.891537 0.044832 0.595706
v 0.758190 0.044832 0.758190
v 0.595706 0.044832 0.891537
v 0.410329 0.044832 0.990623
v 0.209184 0.044832 1.051640
v -0.000000 0.044832 1.072242
v -0.209185 0.044832 1.051639
v -0.410330 0.044832 0.990623
v -0.595706 0.044832 0.891537
v -0.758190 0.044832 0.758189
v -0.891537 0.044832 0.595705
v -0.990623 0.044832 0.410329
v 0.000000 2.189317 0.000000
v -1.051640 0.044832 0.209183
v -1.072242 0.044832 -0.000001
v -1.051639 0.044832 -0.209185
v -0.990622 0.044832 -0.410331
v -0.891536 0.044832 -0.595707
v -0.758189 0.044832 -0.758191
v -0.595705 0.044832 -0.891538
v -0.410328 0.044832 -0.990623
v -0.209183 0.044832 -1.051640
vn 0.0878 0.4455 -0.8910
vn 0.2599 0.4455 -0.8567
vn 0.4220 0.4455 -0.7896
vn 0.5680 0.4455 -0.6921
vn 0.6921 0.4455 -0.5680
vn 0.7896 0.4455 -0.4220
vn 0.8567 0.4455 -0.2599
vn 0.8910 0.4455 -0.0878
vn 0.8910 0.4455 0.0878
vn 0.8567 0.4455 0.2599
vn 0.7896 0.4455 0.4220
vn 0.6921 0.4455 0.5680
vn 0.5680 0.4455 0.6921
vn 0.4220 0.4455 0.7896
vn 0.2599 0.4455 0.8567
vn 0.0878 0.4455 0.8910
vn -0.0878 0.4455 0.8910
vn -0.2599 0.4455 0.8567
vn -0.4220 0.4455 0.7896
vn -0.5680 0.4455 0.6921
vn -0.6921 0.4455 0.5680
vn -0.7896 0.4455 0.4220
vn -0.8567 0.4455 0.2599
vn -0.8910 0.4455 0.0878
vn -0.8910 0.4455 -0.0878
vn -0.8567 0.4455 -0.2599
vn -0.7896 0.4455 -0.4220
vn -0.6921 0.4455 -0.5680
vn -0.5680 0.4455 -0.6921
vn -0.4220 0.4455 -0.7896
vn -0.2599 0.4455 -0.8567
vn -0.0878 0.4455 -0.8910
vn 0.0000 -1.0000 0.0000
usemtl Material.004
s off
f 321//37 344//37 322//37
f 322//38 344//38 323//38
f 323//39 344//39 324//39
f 324//40 344//40 325//40
f 325//41 344//41 326//41
f 326//42 344//42 327//42
f 327//43 344//43 328//43
f 328//44 344//44 329//44
f 329//45 344//45 330//45
f 330//46 344//46 331//46
f 331//47 344//47 332//47
f 332//48 344//48 333//48
f 333//49 344//49 334//49
f 334//50 344//50 335//50
f 335//51 344//51 336//51
f 336//52 344//52 337//52
f 337//53 344//53 338//53
f 338//54 344//54 339//54
f 339//55 344//55 340//55
f 340//56 344//56 341//56
f 341//57 344//57 342//57
f 342//58 344//58 343//58
f 343//59 344//59 345//59
f 345//60 344//60 346//60
f 346//61 344//61 347//61
f 347//62 344//62 348//62
f 348//63 344//63 349//63
f 349//64 344//64 350//64
f 350//65 344//65 351//65
f 351//66 344//66 352//66
f 352//67 344//67 353//67
f 353//68 344//68 321//68
f 328//69 336//69 345//69
f 353//69 321//69 322//69
f 322//69 323//69 324//69
f 324//69 325//69 326//69
f 326//69 327//69 324//69
f 327//69 328//69 324//69
f 328//69 329//69 330//69
f 330//69 331//69 328//69
f 331//69 332//69 328//69
f 332//69 333//69 336//69
f 333//69 334//69 336//69
f 334//69 335//69 336//69
f 336//69 337//69 338//69
f 338//69 339//69 340//69
f 340//69 341//69 342//69
f 342//69 343//69 345//69
f 345//69 346//69 347//69
f 347//69 348//69 349//69
f 349//69 350//69 353//69
f 350//69 351//69 353//69
f 351//69 352//69 353//69
f 353//69 322//69 324//69
f 336//69 338//69 345//69
f 338//69 340//69 345//69
f 340//69 342//69 345//69
f 345//69 347//69 353//69
f 347//69 349//69 353//69
f 353//69 324//69 328//69
f 328//69 332//69 336//69
f 353//69 328//69 345//69
o collision_box_1_Cube.001
v -1.000000 0.027755 1.000000
v -1.000000 1.156332 1.000000
v -1.000000 0.027755 -1.000000
v -1.000000 1.156332 -1.000000
v 1.000000 0.027755 1.000000
v 1.000000 1.156332 1.000000
v 1.000000 0.027755 -1.000000
v 1.000000 1.156332 -1.000000
vn -1.0000 0.0000 0.0000
vn 0.0000 0.0000 -1.0000
vn 1.0000 0.0000 0.0000
vn 0.0000 0.0000 1.0000
vn 0.0000 -1.0000 0.0000
vn 0.0000 1.0000 0.0000
usemtl None
s off
f 355//70 356//70 354//70
f 357//71 360//71 356//71
f 361//72 358//72 360//72
f 359//73 354//73 358//73
f 360//74 354//74 356//74
f 357//75 359//75 361//75
f 355//70 357//70 356//70
f 357//71 361//71 360//71
f 361//72 359//72 358//72
f 359//73 355//73 354//73
f 360//74 358//74 354//74
f 357//75 355//75 359//75
o collision_box_2_Cube.002
v -0.444421 0.319941 1.000000
v -0.444421 3.761474 1.000000
v -0.444421 0.319941 -1.000000
v -0.444421 3.761474 -1.000000
v 0.444421 0.319941 1.000000
v 0.444421 3.761474 1.000000
v 0.444421 0.319941 -1.000000
v 0.444421 3.761474 -1.000000
vn -1.0000 0.0000 0.0000
vn 0.0000 0.0000 -1.0000
vn 1.0000 0.0000 0.0000
vn 0.0000 0.0000 1.0000
vn 0.0000 -1.0000 0.0000
vn 0.0000 1.0000 0.0000
usemtl None
s off
f 363//76 364//76 362//76
f 365//77 368//77 364//77
f 369//78 366//78 368//78
f 367//79 362//79 366//79
f 368//80 362//80 364//80
f 365//81 367//81 369//81
f 363//76 365//76 364//76
f 365//77 369//77 368//77
f 369//78 367//78 366//78
f 367//79 363//79 362//79
f 368//80 366//80 362//80
f 365//81 363//81 367//81
