# Blender v2.80 (sub 45) OBJ File: 'tree.blend'
# www.blender.org
mtllib tree.mtl
v 1.000000 1.000000 -1.000000
v 1.000000 -1.000000 -1.000000
v 1.000000 1.000000 1.000000
v 1.000000 -1.000000 1.000000
v -1.000000 1.000000 -1.000000
v -1.000000 -1.000000 -1.000000
v -1.000000 1.000000 1.000000
v -1.000000 -1.000000 1.000000
v 1.000000 6.400070 1.000000
v -1.000000 6.400070 1.000000
v 1.000000 6.400070 -1.000000
v -1.000000 6.400070 -1.000000
v 1.000000 8.164786 1.000000
v -1.000000 8.164786 1.000000
v 1.000000 8.164786 -1.000000
v -1.000000 8.164786 -1.000000
v -4.191048 6.400070 1.000000
v -4.191048 6.400070 -1.000000
v -4.191048 8.164786 1.000000
v -4.191048 8.164786 -1.000000
v 1.000000 6.400070 3.537441
v -1.000000 6.400070 3.537441
v 1.000000 8.164786 3.537441
v -1.000000 8.164786 3.537441
v -4.191048 6.400070 3.537441
v -4.191048 6.400070 1.537441
v -4.191048 8.164786 3.537441
v -4.191048 8.164786 1.537441
v 3.816410 6.400070 -1.000000
v 3.816410 6.400070 1.000000
v 3.816410 8.164786 -1.000000
v 3.816410 8.164786 1.000000
v 3.816410 6.400070 3.537441
v 3.816410 8.164786 3.537441
v -1.000000 6.400070 -3.789499
v 1.000000 6.400070 -3.789499
v -1.000000 8.164786 -3.789499
v 1.000000 8.164786 -3.789499
v 3.816410 8.164786 -3.789499
v -4.191048 8.164786 -3.789499
v -4.191048 6.400070 -3.789499
v 3.816410 6.400070 -3.789499
v 3.816410 6.400070 -1.789499
v 3.816410 8.164786 -1.789499
v 3.816410 6.400070 0.747942
v 3.816410 8.164786 0.747942
v 1.000000 10.201260 1.000000
v -1.000000 10.201260 1.000000
v 1.000000 10.201260 -1.000000
v -1.000000 10.201260 -1.000000
v 1.000000 8.164786 2.389682
v -1.000000 8.164786 2.389682
v 1.000000 10.201260 2.389682
v -1.000000 10.201260 2.389682
v -3.155440 8.164786 1.000000
v -3.155440 8.164786 -1.000000
v -3.155440 10.201260 1.000000
v -3.155440 10.201260 -1.000000
v -3.155440 8.164786 2.389682
v -3.155440 10.201260 2.389682
v 2.816718 8.164786 -1.000000
v 2.816718 8.164786 1.000000
v 2.816718 10.201260 -1.000000
v 2.816718 10.201260 1.000000
v 2.816718 10.201260 2.389682
v 2.816718 8.164786 2.389682
v -1.000000 8.164786 -2.798803
v 1.000000 8.164786 -2.798803
v -1.000000 10.201260 -2.798803
v 1.000000 10.201260 -2.798803
v 2.816718 10.201260 -2.798803
v -3.155440 8.164786 -2.798803
v -3.155440 10.201260 -2.798803
v 2.816718 8.164786 -2.798803
vn 0.0000 -1.0000 0.0000
vn 0.0000 1.0000 0.0000
vn 0.0000 0.0000 1.0000
vn -1.0000 0.0000 0.0000
vn 0.0000 0.0000 -1.0000
vn 1.0000 0.0000 0.0000
usemtl Material
s off
f 10//1 18//1 12//1
f 56//1 67//1 16//1
f 10//1 25//1 17//1
f 16//2 40//2 20//2
f 13//2 31//2 15//2
f 9//1 22//1 10//1
f 15//2 37//2 16//2
f 19//3 28//3 27//3
f 16//2 19//2 14//2
f 21//3 24//3 22//3
f 25//4 28//4 26//4
f 24//3 25//3 22//3
f 18//3 25//3 26//3
f 33//1 43//1 45//1
f 19//2 24//2 14//2
f 18//4 28//4 20//4
f 14//2 23//2 13//2
f 18//1 35//1 12//1
f 31//2 38//2 15//2
f 23//2 32//2 13//2
f 21//3 34//3 23//3
f 9//1 33//1 21//1
f 11//1 30//1 9//1
f 35//5 38//5 36//5
f 35//5 40//5 37//5
f 38//5 42//5 36//5
f 42//6 44//6 43//6
f 44//6 45//6 43//6
f 32//3 46//3 44//3
f 20//4 41//4 18//4
f 30//1 42//1 43//1
f 11//1 42//1 29//1
f 12//1 36//1 11//1
f 33//6 46//6 34//6
f 31//1 44//1 39//1
f 50//2 47//2 49//2
f 53//2 64//2 47//2
f 48//2 60//2 54//2
f 58//4 72//4 56//4
f 51//3 54//3 52//3
f 15//1 74//1 61//1
f 48//2 53//2 47//2
f 13//1 52//1 14//1
f 55//4 58//4 56//4
f 55//4 60//4 57//4
f 50//2 57//2 48//2
f 14//1 56//1 16//1
f 54//3 59//3 52//3
f 52//1 55//1 14//1
f 61//6 64//6 62//6
f 64//6 66//6 62//6
f 47//2 63//2 49//2
f 15//1 62//1 13//1
f 51//3 65//3 53//3
f 13//1 66//1 51//1
f 67//5 70//5 68//5
f 67//5 73//5 69//5
f 70//5 74//5 68//5
f 49//2 69//2 50//2
f 50//2 73//2 58//2
f 16//1 68//1 15//1
f 61//6 71//6 63//6
f 63//2 70//2 49//2
f 10//1 17//1 18//1
f 56//1 72//1 67//1
f 10//1 22//1 25//1
f 16//2 37//2 40//2
f 13//2 32//2 31//2
f 9//1 21//1 22//1
f 15//2 38//2 37//2
f 19//3 20//3 28//3
f 16//2 20//2 19//2
f 21//3 23//3 24//3
f 25//4 27//4 28//4
f 24//3 27//3 25//3
f 18//3 17//3 25//3
f 33//2 30//2 43//2
f 19//2 27//2 24//2
f 18//4 26//4 28//4
f 14//2 24//2 23//2
f 18//1 41//1 35//1
f 31//2 39//2 38//2
f 23//2 34//2 32//2
f 21//3 33//3 34//3
f 9//1 30//1 33//1
f 11//1 29//1 30//1
f 35//5 37//5 38//5
f 35//5 41//5 40//5
f 38//5 39//5 42//5
f 42//6 39//6 44//6
f 44//6 46//6 45//6
f 32//3 34//3 46//3
f 20//4 40//4 41//4
f 30//3 29//3 42//3
f 11//1 36//1 42//1
f 12//1 35//1 36//1
f 33//6 45//6 46//6
f 31//3 32//3 44//3
f 50//2 48//2 47//2
f 53//2 65//2 64//2
f 48//2 57//2 60//2
f 58//4 73//4 72//4
f 51//3 53//3 54//3
f 15//1 68//1 74//1
f 48//2 54//2 53//2
f 13//1 51//1 52//1
f 55//4 57//4 58//4
f 55//4 59//4 60//4
f 50//2 58//2 57//2
f 14//1 55//1 56//1
f 54//3 60//3 59//3
f 52//1 59//1 55//1
f 61//6 63//6 64//6
f 64//6 65//6 66//6
f 47//2 64//2 63//2
f 15//1 61//1 62//1
f 51//3 66//3 65//3
f 13//1 62//1 66//1
f 67//5 69//5 70//5
f 67//5 72//5 73//5
f 70//5 71//5 74//5
f 49//2 70//2 69//2
f 50//2 69//2 73//2
f 16//1 67//1 68//1
f 61//6 74//6 71//6
f 63//2 71//2 70//2
usemtl Material.001
f 1//6 9//6 3//6
f 3//3 8//3 4//3
f 7//4 6//4 8//4
f 2//1 8//1 6//1
f 1//6 4//6 2//6
f 5//5 2//5 6//5
f 5//5 11//5 1//5
f 3//3 10//3 7//3
f 7//4 12//4 5//4
f 1//6 11//6 9//6
f 3//3 7//3 8//3
f 7//4 5//4 6//4
f 2//1 4//1 8//1
f 1//6 3//6 4//6
f 5//5 1//5 2//5
f 5//5 12//5 11//5
f 3//3 9//3 10//3
f 7//4 10//4 12//4
o collision_box_1_Cube
v 1.000000 6.438868 -1.000000
v 1.000000 -1.000000 -1.000000
v 1.000000 6.438868 1.000000
v 1.000000 -1.000000 1.000000
v -1.000000 6.438868 -1.000000
v -1.000000 -1.000000 -1.000000
v -1.000000 6.438868 1.000000
v -1.000000 -1.000000 1.000000
vn 0.0000 1.0000 0.0000
vn 0.0000 0.0000 1.0000
vn -1.0000 0.0000 0.0000
vn 0.0000 -1.0000 0.0000
vn 1.0000 0.0000 0.0000
vn 0.0000 0.0000 -1.0000
usemtl Material
s off
f 5//1 3//1 1//1
f 3//2 8//2 4//2
f 7//3 6//3 8//3
f 2//4 8//4 6//4
f 1//5 4//5 2//5
f 5//6 2//6 6//6
f 5//1 7//1 3//1
f 3//2 7//2 8//2
f 7//3 5//3 6//3
f 2//4 4//4 8//4
f 1//5 3//5 4//5
f 5//6 1//6 2//6
o collision_box_2_Cube.001
v -3.135140 6.520287 2.375213
v -3.135140 10.192793 2.375213
v -3.135140 6.520287 -2.757421
v -3.135140 10.192793 -2.757421
v 2.757421 6.520287 2.375213
v 2.757421 10.192793 2.375213
v 2.757421 6.520287 -2.757421
v 2.757421 10.192793 -2.757421
vn -1.0000 0.0000 0.0000
vn 0.0000 0.0000 -1.0000
vn 1.0000 0.0000 0.0000
vn 0.0000 0.0000 1.0000
vn 0.0000 -1.0000 0.0000
vn 0.0000 1.0000 0.0000
usemtl None
s off
f 10//7 11//7 9//7
f 12//8 15//8 11//8
f 16//9 13//9 15//9
f 14//10 9//10 13//10
f 15//11 9//11 11//11
f 12//12 14//12 16//12
f 10//7 12//7 11//7
f 12//8 16//8 15//8
f 16//9 14//9 13//9
f 14//10 10//10 9//10
f 15//11 13//11 9//11
f 12//12 10//12 14//12
o collision_box_3_Cube.002
v -4.166384 6.426431 3.533932
v -4.166384 8.150656 3.533932
v -4.166384 6.426431 -3.771591
v -4.166384 8.150656 -3.771591
v 3.787411 6.426431 3.533932
v 3.787411 8.150656 3.533932
v 3.787411 6.426431 -3.771591
v 3.787411 8.150656 -3.771591
vn -1.0000 0.0000 0.0000
vn 0.0000 0.0000 -1.0000
vn 1.0000 0.0000 0.0000
vn 0.0000 0.0000 1.0000
vn 0.0000 -1.0000 0.0000
vn 0.0000 1.0000 0.0000
usemtl None
s off
f 18//13 19//13 17//13
f 20//14 23//14 19//14
f 24//15 21//15 23//15
f 22//16 17//16 21//16
f 23//17 17//17 19//17
f 20//18 22//18 24//18
f 18//13 20//13 19//13
f 20//14 24//14 23//14
f 24//15 22//15 21//15
f 22//16 18//16 17//16
f 23//17 21//17 17//17
f 20//18 18//18 22//18
