# Blender MTL File: 'earth.blend'
# Material Count: 3

newmtl Material.001
Ns 225.000000
Ka 1.000000 1.000000 1.000000
Kd 0.000000 0.165540 0.800000
Ks 0.500000 0.500000 0.500000
Ke 0.0 0.0 0.0
Ni 1.000000
d 1.000000
illum 2

newmtl Material.002
Ns 225.000000
Ka 1.000000 1.000000 1.000000
Kd 0.001530 0.326376 0.000000
Ks 0.500000 0.500000 0.500000
Ke 0.0 0.0 0.0
Ni 1.000000
d 1.000000
illum 2

newmtl Material.003
Ns 225.000000
Ka 1.000000 1.000000 1.000000
Kd 1.000000 1.000000 1.000000
Ks 0.500000 0.500000 0.500000
Ke 0.0 0.0 0.0
Ni 1.000000
d 1.000000
illum 2
